^C:\USERS\ZEBRA\ONEDRIVE\DOCUMENTS\COMPUTER SCIENCE YEAR 3\SEMESTER 1\INDIVIDUAL PROJECT\GIT_REPO\COMP3931-AUDIO-FX-PLUGIN\CRUNCH_BOX_V1\CRUNCH_BOX_1\JUCELIBRARYCODE\INCLUDE_JUCE_AUDIO_PLUGIN_CLIENT_VST3.CPP
C:\WINDOWS\GLOBALIZATION\SORTING\SORTDEFAULT.NLS
C:\PROGRAM FILES\MICROSOFT VISUAL STUDIO\2022\COMMUNITY\VC\TOOLS\MSVC\14.30.30705\BIN\HOSTX64\X64\1033\CLUI.DLL
C:\WINDOWS\SYSTEM32\TZRES.DLL
C:\PROGRAM FILES\JUCE\MODULES\JUCE_AUDIO_PLUGIN_CLIENT\JUCE_AUDIO_PLUGIN_CLIENT_VST3.CPP
C:\PROGRAM FILES\JUCE\MODULES\JUCE_AUDIO_PLUGIN_CLIENT\VST3\JUCE_VST3_WRAPPER.CPP
C:\PROGRAM FILES\JUCE\MODULES\JUCE_CORE\SYSTEM\JUCE_TARGETPLATFORM.H
C:\PROGRAM FILES\JUCE\MODULES\JUCE_CORE\SYSTEM\JUCE_COMPILERWARNINGS.H
C:\PROGRAM FILES\JUCE\MODULES\JUCE_AUDIO_PROCESSORS\FORMAT_TYPES\JUCE_VST3HEADERS.H
C:\PROGRAM FILES\JUCE\MODULES\JUCE_AUDIO_PROCESSORS\FORMAT_TYPES\VST3_SDK\PLUGINTERFACES\VST\VSTTYPES.H
C:\PROGRAM FILES\JUCE\MODULES\JUCE_AUDIO_PROCESSORS\FORMAT_TYPES\VST3_SDK\PLUGINTERFACES\BASE\FSTRDEFS.H
C:\PROGRAM FILES\JUCE\MODULES\JUCE_AUDIO_PROCESSORS\FORMAT_TYPES\VST3_SDK\PLUGINTERFACES\BASE\FTYPES.H
C:\PROGRAM FILES\JUCE\MODULES\JUCE_AUDIO_PROCESSORS\FORMAT_TYPES\VST3_SDK\PLUGINTERFACES\BASE\FPLATFORM.H
C:\PROGRAM FILES\JUCE\MODULES\JUCE_AUDIO_PROCESSORS\FORMAT_TYPES\VST3_SDK\BASE\SOURCE\BASEIIDS.CPP
C:\PROGRAM FILES\JUCE\MODULES\JUCE_AUDIO_PROCESSORS\FORMAT_TYPES\VST3_SDK\PLUGINTERFACES\BASE\FUNKNOWN.H
C:\PROGRAM FILES\JUCE\MODULES\JUCE_AUDIO_PROCESSORS\FORMAT_TYPES\VST3_SDK\PLUGINTERFACES\BASE\SMARTPOINTER.H
C:\PROGRAM FILES\MICROSOFT VISUAL STUDIO\2022\COMMUNITY\VC\TOOLS\MSVC\14.30.30705\INCLUDE\UTILITY
C:\PROGRAM FILES\MICROSOFT VISUAL STUDIO\2022\COMMUNITY\VC\TOOLS\MSVC\14.30.30705\INCLUDE\YVALS_CORE.H
C:\PROGRAM FILES\MICROSOFT VISUAL STUDIO\2022\COMMUNITY\VC\TOOLS\MSVC\14.30.30705\INCLUDE\VCRUNTIME.H
C:\PROGRAM FILES\MICROSOFT VISUAL STUDIO\2022\COMMUNITY\VC\TOOLS\MSVC\14.30.30705\INCLUDE\SAL.H
C:\PROGRAM FILES\MICROSOFT VISUAL STUDIO\2022\COMMUNITY\VC\TOOLS\MSVC\14.30.30705\INCLUDE\CONCURRENCYSAL.H
C:\PROGRAM FILES\MICROSOFT VISUAL STUDIO\2022\COMMUNITY\VC\TOOLS\MSVC\14.30.30705\INCLUDE\VADEFS.H
C:\PROGRAM FILES\MICROSOFT VISUAL STUDIO\2022\COMMUNITY\VC\TOOLS\MSVC\14.30.30705\INCLUDE\XKEYCHECK.H
C:\PROGRAM FILES\MICROSOFT VISUAL STUDIO\2022\COMMUNITY\VC\TOOLS\MSVC\14.30.30705\INCLUDE\TYPE_TRAITS
C:\PROGRAM FILES\MICROSOFT VISUAL STUDIO\2022\COMMUNITY\VC\TOOLS\MSVC\14.30.30705\INCLUDE\CSTDINT
C:\PROGRAM FILES\MICROSOFT VISUAL STUDIO\2022\COMMUNITY\VC\TOOLS\MSVC\14.30.30705\INCLUDE\STDINT.H
C:\PROGRAM FILES\MICROSOFT VISUAL STUDIO\2022\COMMUNITY\VC\TOOLS\MSVC\14.30.30705\INCLUDE\XSTDDEF
C:\PROGRAM FILES\MICROSOFT VISUAL STUDIO\2022\COMMUNITY\VC\TOOLS\MSVC\14.30.30705\INCLUDE\CSTDDEF
C:\PROGRAM FILES (X86)\WINDOWS KITS\10\INCLUDE\10.0.19041.0\UCRT\STDDEF.H
C:\PROGRAM FILES (X86)\WINDOWS KITS\10\INCLUDE\10.0.19041.0\UCRT\CORECRT.H
C:\PROGRAM FILES\MICROSOFT VISUAL STUDIO\2022\COMMUNITY\VC\TOOLS\MSVC\14.30.30705\INCLUDE\XTR1COMMON
C:\PROGRAM FILES\MICROSOFT VISUAL STUDIO\2022\COMMUNITY\VC\TOOLS\MSVC\14.30.30705\INCLUDE\CSTDLIB
C:\PROGRAM FILES (X86)\WINDOWS KITS\10\INCLUDE\10.0.19041.0\UCRT\MATH.H
C:\PROGRAM FILES (X86)\WINDOWS KITS\10\INCLUDE\10.0.19041.0\UCRT\CORECRT_MATH.H
C:\PROGRAM FILES (X86)\WINDOWS KITS\10\INCLUDE\10.0.19041.0\UCRT\STDLIB.H
C:\PROGRAM FILES (X86)\WINDOWS KITS\10\INCLUDE\10.0.19041.0\UCRT\CORECRT_MALLOC.H
C:\PROGRAM FILES (X86)\WINDOWS KITS\10\INCLUDE\10.0.19041.0\UCRT\CORECRT_SEARCH.H
C:\PROGRAM FILES (X86)\WINDOWS KITS\10\INCLUDE\10.0.19041.0\UCRT\CORECRT_WSTDLIB.H
C:\PROGRAM FILES\MICROSOFT VISUAL STUDIO\2022\COMMUNITY\VC\TOOLS\MSVC\14.30.30705\INCLUDE\LIMITS.H
C:\PROGRAM FILES\MICROSOFT VISUAL STUDIO\2022\COMMUNITY\VC\TOOLS\MSVC\14.30.30705\INCLUDE\INITIALIZER_LIST
C:\PROGRAM FILES\MICROSOFT VISUAL STUDIO\2022\COMMUNITY\VC\TOOLS\MSVC\14.30.30705\INCLUDE\CSTRING
C:\PROGRAM FILES (X86)\WINDOWS KITS\10\INCLUDE\10.0.19041.0\UCRT\STRING.H
C:\PROGRAM FILES (X86)\WINDOWS KITS\10\INCLUDE\10.0.19041.0\UCRT\CORECRT_MEMORY.H
C:\PROGRAM FILES (X86)\WINDOWS KITS\10\INCLUDE\10.0.19041.0\UCRT\CORECRT_MEMCPY_S.H
C:\PROGRAM FILES (X86)\WINDOWS KITS\10\INCLUDE\10.0.19041.0\UCRT\ERRNO.H
C:\PROGRAM FILES\MICROSOFT VISUAL STUDIO\2022\COMMUNITY\VC\TOOLS\MSVC\14.30.30705\INCLUDE\VCRUNTIME_STRING.H
C:\PROGRAM FILES (X86)\WINDOWS KITS\10\INCLUDE\10.0.19041.0\UCRT\CORECRT_WSTRING.H
C:\PROGRAM FILES\JUCE\MODULES\JUCE_AUDIO_PROCESSORS\FORMAT_TYPES\VST3_SDK\PLUGINTERFACES\BASE\ISTRINGRESULT.H
C:\PROGRAM FILES\JUCE\MODULES\JUCE_AUDIO_PROCESSORS\FORMAT_TYPES\VST3_SDK\PLUGINTERFACES\BASE\IPERSISTENT.H
C:\PROGRAM FILES\JUCE\MODULES\JUCE_AUDIO_PROCESSORS\FORMAT_TYPES\VST3_SDK\BASE\SOURCE\FBUFFER.CPP
C:\PROGRAM FILES\JUCE\MODULES\JUCE_AUDIO_PROCESSORS\FORMAT_TYPES\VST3_SDK\BASE\SOURCE\FBUFFER.H
C:\PROGRAM FILES\JUCE\MODULES\JUCE_AUDIO_PROCESSORS\FORMAT_TYPES\VST3_SDK\BASE\SOURCE\FSTRING.H
C:\PROGRAM FILES\JUCE\MODULES\JUCE_AUDIO_PROCESSORS\FORMAT_TYPES\VST3_SDK\BASE\SOURCE\FOBJECT.H
C:\PROGRAM FILES\JUCE\MODULES\JUCE_AUDIO_PROCESSORS\FORMAT_TYPES\VST3_SDK\PLUGINTERFACES\BASE\IUPDATEHANDLER.H
C:\PROGRAM FILES\JUCE\MODULES\JUCE_AUDIO_PROCESSORS\FORMAT_TYPES\VST3_SDK\BASE\SOURCE\FDEBUG.H
C:\PROGRAM FILES\MICROSOFT VISUAL STUDIO\2022\COMMUNITY\VC\TOOLS\MSVC\14.30.30705\INCLUDE\CSTDARG
C:\PROGRAM FILES\MICROSOFT VISUAL STUDIO\2022\COMMUNITY\VC\TOOLS\MSVC\14.30.30705\INCLUDE\STDARG.H
C:\PROGRAM FILES\JUCE\MODULES\JUCE_AUDIO_PROCESSORS\FORMAT_TYPES\VST3_SDK\BASE\SOURCE\FDEBUG.CPP
C:\PROGRAM FILES (X86)\WINDOWS KITS\10\INCLUDE\10.0.19041.0\UM\WINDOWS.H
C:\PROGRAM FILES (X86)\WINDOWS KITS\10\INCLUDE\10.0.19041.0\SHARED\WINAPIFAMILY.H
C:\PROGRAM FILES (X86)\WINDOWS KITS\10\INCLUDE\10.0.19041.0\SHARED\WINPACKAGEFAMILY.H
C:\PROGRAM FILES (X86)\WINDOWS KITS\10\INCLUDE\10.0.19041.0\SHARED\SDKDDKVER.H
C:\PROGRAM FILES\MICROSOFT VISUAL STUDIO\2022\COMMUNITY\VC\TOOLS\MSVC\14.30.30705\INCLUDE\EXCPT.H
C:\PROGRAM FILES (X86)\WINDOWS KITS\10\INCLUDE\10.0.19041.0\SHARED\WINDEF.H
C:\PROGRAM FILES (X86)\WINDOWS KITS\10\INCLUDE\10.0.19041.0\SHARED\MINWINDEF.H
C:\PROGRAM FILES (X86)\WINDOWS KITS\10\INCLUDE\10.0.19041.0\SHARED\SPECSTRINGS.H
C:\PROGRAM FILES (X86)\WINDOWS KITS\10\INCLUDE\10.0.19041.0\SHARED\SPECSTRINGS_STRICT.H
C:\PROGRAM FILES (X86)\WINDOWS KITS\10\INCLUDE\10.0.19041.0\SHARED\SPECSTRINGS_UNDEF.H
C:\PROGRAM FILES (X86)\WINDOWS KITS\10\INCLUDE\10.0.19041.0\SHARED\DRIVERSPECS.H
C:\PROGRAM FILES (X86)\WINDOWS KITS\10\INCLUDE\10.0.19041.0\SHARED\SDV_DRIVERSPECS.H
C:\PROGRAM FILES (X86)\WINDOWS KITS\10\INCLUDE\10.0.19041.0\UM\WINNT.H
C:\PROGRAM FILES (X86)\WINDOWS KITS\10\INCLUDE\10.0.19041.0\UCRT\CTYPE.H
C:\PROGRAM FILES (X86)\WINDOWS KITS\10\INCLUDE\10.0.19041.0\UCRT\CORECRT_WCTYPE.H
C:\PROGRAM FILES (X86)\WINDOWS KITS\10\INCLUDE\10.0.19041.0\SHARED\KERNELSPECS.H
C:\PROGRAM FILES (X86)\WINDOWS KITS\10\INCLUDE\10.0.19041.0\SHARED\BASETSD.H
C:\PROGRAM FILES (X86)\WINDOWS KITS\10\INCLUDE\10.0.19041.0\SHARED\GUIDDEF.H
C:\PROGRAM FILES (X86)\WINDOWS KITS\10\INCLUDE\10.0.19041.0\SHARED\PSHPACK4.H
C:\PROGRAM FILES (X86)\WINDOWS KITS\10\INCLUDE\10.0.19041.0\SHARED\POPPACK.H
C:\PROGRAM FILES (X86)\WINDOWS KITS\10\INCLUDE\10.0.19041.0\SHARED\PSHPACK2.H
C:\PROGRAM FILES (X86)\WINDOWS KITS\10\INCLUDE\10.0.19041.0\SHARED\PSHPACK8.H
C:\PROGRAM FILES (X86)\WINDOWS KITS\10\INCLUDE\10.0.19041.0\SHARED\PSHPACK1.H
C:\PROGRAM FILES (X86)\WINDOWS KITS\10\INCLUDE\10.0.19041.0\SHARED\APISET.H
C:\PROGRAM FILES (X86)\WINDOWS KITS\10\INCLUDE\10.0.19041.0\SHARED\KTMTYPES.H
C:\PROGRAM FILES (X86)\WINDOWS KITS\10\INCLUDE\10.0.19041.0\UM\WINBASE.H
C:\PROGRAM FILES (X86)\WINDOWS KITS\10\INCLUDE\10.0.19041.0\SHARED\APISETCCONV.H
C:\PROGRAM FILES (X86)\WINDOWS KITS\10\INCLUDE\10.0.19041.0\UM\MINWINBASE.H
C:\PROGRAM FILES (X86)\WINDOWS KITS\10\INCLUDE\10.0.19041.0\UM\APIQUERY2.H
C:\PROGRAM FILES (X86)\WINDOWS KITS\10\INCLUDE\10.0.19041.0\UM\PROCESSENV.H
C:\PROGRAM FILES (X86)\WINDOWS KITS\10\INCLUDE\10.0.19041.0\UM\FILEAPIFROMAPP.H
C:\PROGRAM FILES (X86)\WINDOWS KITS\10\INCLUDE\10.0.19041.0\UM\FILEAPI.H
C:\PROGRAM FILES (X86)\WINDOWS KITS\10\INCLUDE\10.0.19041.0\UM\DEBUGAPI.H
C:\PROGRAM FILES (X86)\WINDOWS KITS\10\INCLUDE\10.0.19041.0\UM\UTILAPISET.H
C:\PROGRAM FILES (X86)\WINDOWS KITS\10\INCLUDE\10.0.19041.0\UM\HANDLEAPI.H
C:\PROGRAM FILES (X86)\WINDOWS KITS\10\INCLUDE\10.0.19041.0\UM\ERRHANDLINGAPI.H
C:\PROGRAM FILES (X86)\WINDOWS KITS\10\INCLUDE\10.0.19041.0\UM\FIBERSAPI.H
C:\PROGRAM FILES (X86)\WINDOWS KITS\10\INCLUDE\10.0.19041.0\UM\NAMEDPIPEAPI.H
C:\PROGRAM FILES (X86)\WINDOWS KITS\10\INCLUDE\10.0.19041.0\UM\PROFILEAPI.H
C:\PROGRAM FILES (X86)\WINDOWS KITS\10\INCLUDE\10.0.19041.0\UM\HEAPAPI.H
C:\PROGRAM FILES (X86)\WINDOWS KITS\10\INCLUDE\10.0.19041.0\UM\IOAPISET.H
C:\PROGRAM FILES (X86)\WINDOWS KITS\10\INCLUDE\10.0.19041.0\UM\SYNCHAPI.H
C:\PROGRAM FILES (X86)\WINDOWS KITS\10\INCLUDE\10.0.19041.0\UM\INTERLOCKEDAPI.H
C:\PROGRAM FILES (X86)\WINDOWS KITS\10\INCLUDE\10.0.19041.0\UM\PROCESSTHREADSAPI.H
C:\PROGRAM FILES (X86)\WINDOWS KITS\10\INCLUDE\10.0.19041.0\UM\SYSINFOAPI.H
C:\PROGRAM FILES (X86)\WINDOWS KITS\10\INCLUDE\10.0.19041.0\UM\MEMORYAPI.H
C:\PROGRAM FILES (X86)\WINDOWS KITS\10\INCLUDE\10.0.19041.0\UM\ENCLAVEAPI.H
C:\PROGRAM FILES (X86)\WINDOWS KITS\10\INCLUDE\10.0.19041.0\UM\THREADPOOLLEGACYAPISET.H
C:\PROGRAM FILES (X86)\WINDOWS KITS\10\INCLUDE\10.0.19041.0\UM\THREADPOOLAPISET.H
C:\PROGRAM FILES (X86)\WINDOWS KITS\10\INCLUDE\10.0.19041.0\UM\JOBAPI.H
C:\PROGRAM FILES (X86)\WINDOWS KITS\10\INCLUDE\10.0.19041.0\UM\JOBAPI2.H
C:\PROGRAM FILES (X86)\WINDOWS KITS\10\INCLUDE\10.0.19041.0\UM\WOW64APISET.H
C:\PROGRAM FILES (X86)\WINDOWS KITS\10\INCLUDE\10.0.19041.0\UM\LIBLOADERAPI.H
C:\PROGRAM FILES (X86)\WINDOWS KITS\10\INCLUDE\10.0.19041.0\UM\SECURITYBASEAPI.H
C:\PROGRAM FILES (X86)\WINDOWS KITS\10\INCLUDE\10.0.19041.0\UM\NAMESPACEAPI.H
C:\PROGRAM FILES (X86)\WINDOWS KITS\10\INCLUDE\10.0.19041.0\UM\SYSTEMTOPOLOGYAPI.H
C:\PROGRAM FILES (X86)\WINDOWS KITS\10\INCLUDE\10.0.19041.0\UM\PROCESSTOPOLOGYAPI.H
C:\PROGRAM FILES (X86)\WINDOWS KITS\10\INCLUDE\10.0.19041.0\UM\SECURITYAPPCONTAINER.H
C:\PROGRAM FILES (X86)\WINDOWS KITS\10\INCLUDE\10.0.19041.0\UM\REALTIMEAPISET.H
C:\PROGRAM FILES (X86)\WINDOWS KITS\10\INCLUDE\10.0.19041.0\SHARED\WINERROR.H
C:\PROGRAM FILES (X86)\WINDOWS KITS\10\INCLUDE\10.0.19041.0\UM\TIMEZONEAPI.H
C:\PROGRAM FILES (X86)\WINDOWS KITS\10\INCLUDE\10.0.19041.0\UM\WINGDI.H
C:\PROGRAM FILES (X86)\WINDOWS KITS\10\INCLUDE\10.0.19041.0\UM\WINUSER.H
C:\PROGRAM FILES (X86)\WINDOWS KITS\10\INCLUDE\10.0.19041.0\SHARED\TVOUT.H
C:\PROGRAM FILES (X86)\WINDOWS KITS\10\INCLUDE\10.0.19041.0\UM\WINNLS.H
C:\PROGRAM FILES (X86)\WINDOWS KITS\10\INCLUDE\10.0.19041.0\UM\DATETIMEAPI.H
C:\PROGRAM FILES (X86)\WINDOWS KITS\10\INCLUDE\10.0.19041.0\UM\STRINGAPISET.H
C:\PROGRAM FILES (X86)\WINDOWS KITS\10\INCLUDE\10.0.19041.0\UM\WINCON.H
C:\PROGRAM FILES (X86)\WINDOWS KITS\10\INCLUDE\10.0.19041.0\UM\WINCONTYPES.H
C:\PROGRAM FILES (X86)\WINDOWS KITS\10\INCLUDE\10.0.19041.0\UM\CONSOLEAPI.H
C:\PROGRAM FILES (X86)\WINDOWS KITS\10\INCLUDE\10.0.19041.0\UM\CONSOLEAPI2.H
C:\PROGRAM FILES (X86)\WINDOWS KITS\10\INCLUDE\10.0.19041.0\UM\CONSOLEAPI3.H
C:\PROGRAM FILES (X86)\WINDOWS KITS\10\INCLUDE\10.0.19041.0\UM\WINVER.H
C:\PROGRAM FILES (X86)\WINDOWS KITS\10\INCLUDE\10.0.19041.0\UM\VERRSRC.H
C:\PROGRAM FILES (X86)\WINDOWS KITS\10\INCLUDE\10.0.19041.0\UM\WINREG.H
C:\PROGRAM FILES (X86)\WINDOWS KITS\10\INCLUDE\10.0.19041.0\UM\REASON.H
C:\PROGRAM FILES (X86)\WINDOWS KITS\10\INCLUDE\10.0.19041.0\UM\WINNETWK.H
C:\PROGRAM FILES (X86)\WINDOWS KITS\10\INCLUDE\10.0.19041.0\SHARED\WNNC.H
C:\PROGRAM FILES (X86)\WINDOWS KITS\10\INCLUDE\10.0.19041.0\SHARED\CDERR.H
C:\PROGRAM FILES (X86)\WINDOWS KITS\10\INCLUDE\10.0.19041.0\UM\DDE.H
C:\PROGRAM FILES (X86)\WINDOWS KITS\10\INCLUDE\10.0.19041.0\UM\DDEML.H
C:\PROGRAM FILES (X86)\WINDOWS KITS\10\INCLUDE\10.0.19041.0\UM\DLGS.H
C:\PROGRAM FILES (X86)\WINDOWS KITS\10\INCLUDE\10.0.19041.0\UM\LZEXPAND.H
C:\PROGRAM FILES (X86)\WINDOWS KITS\10\INCLUDE\10.0.19041.0\UM\MMSYSTEM.H
C:\PROGRAM FILES (X86)\WINDOWS KITS\10\INCLUDE\10.0.19041.0\UM\MMSYSCOM.H
C:\PROGRAM FILES (X86)\WINDOWS KITS\10\INCLUDE\10.0.19041.0\UM\MCIAPI.H
C:\PROGRAM FILES (X86)\WINDOWS KITS\10\INCLUDE\10.0.19041.0\UM\MMISCAPI.H
C:\PROGRAM FILES (X86)\WINDOWS KITS\10\INCLUDE\10.0.19041.0\UM\MMISCAPI2.H
C:\PROGRAM FILES (X86)\WINDOWS KITS\10\INCLUDE\10.0.19041.0\UM\PLAYSOUNDAPI.H
C:\PROGRAM FILES (X86)\WINDOWS KITS\10\INCLUDE\10.0.19041.0\UM\MMEAPI.H
C:\PROGRAM FILES (X86)\WINDOWS KITS\10\INCLUDE\10.0.19041.0\UM\TIMEAPI.H
C:\PROGRAM FILES (X86)\WINDOWS KITS\10\INCLUDE\10.0.19041.0\UM\JOYSTICKAPI.H
C:\PROGRAM FILES (X86)\WINDOWS KITS\10\INCLUDE\10.0.19041.0\UM\NB30.H
C:\PROGRAM FILES (X86)\WINDOWS KITS\10\INCLUDE\10.0.19041.0\SHARED\RPC.H
C:\PROGRAM FILES (X86)\WINDOWS KITS\10\INCLUDE\10.0.19041.0\SHARED\RPCDCE.H
C:\PROGRAM FILES (X86)\WINDOWS KITS\10\INCLUDE\10.0.19041.0\SHARED\RPCDCEP.H
C:\PROGRAM FILES (X86)\WINDOWS KITS\10\INCLUDE\10.0.19041.0\UM\RPCNSI.H
C:\PROGRAM FILES (X86)\WINDOWS KITS\10\INCLUDE\10.0.19041.0\SHARED\RPCNTERR.H
C:\PROGRAM FILES (X86)\WINDOWS KITS\10\INCLUDE\10.0.19041.0\SHARED\RPCASYNC.H
C:\PROGRAM FILES (X86)\WINDOWS KITS\10\INCLUDE\10.0.19041.0\UM\SHELLAPI.H
C:\PROGRAM FILES (X86)\WINDOWS KITS\10\INCLUDE\10.0.19041.0\UM\WINPERF.H
C:\PROGRAM FILES (X86)\WINDOWS KITS\10\INCLUDE\10.0.19041.0\UM\WINSOCK.H
C:\PROGRAM FILES (X86)\WINDOWS KITS\10\INCLUDE\10.0.19041.0\SHARED\INADDR.H
C:\PROGRAM FILES (X86)\WINDOWS KITS\10\INCLUDE\10.0.19041.0\UM\WINCRYPT.H
C:\PROGRAM FILES (X86)\WINDOWS KITS\10\INCLUDE\10.0.19041.0\SHARED\BCRYPT.H
C:\PROGRAM FILES (X86)\WINDOWS KITS\10\INCLUDE\10.0.19041.0\UM\NCRYPT.H
C:\PROGRAM FILES (X86)\WINDOWS KITS\10\INCLUDE\10.0.19041.0\UM\DPAPI.H
C:\PROGRAM FILES (X86)\WINDOWS KITS\10\INCLUDE\10.0.19041.0\UM\WINEFS.H
C:\PROGRAM FILES (X86)\WINDOWS KITS\10\INCLUDE\10.0.19041.0\UM\WINSCARD.H
C:\PROGRAM FILES (X86)\WINDOWS KITS\10\INCLUDE\10.0.19041.0\SHARED\WTYPES.H
C:\PROGRAM FILES (X86)\WINDOWS KITS\10\INCLUDE\10.0.19041.0\SHARED\RPCNDR.H
C:\PROGRAM FILES (X86)\WINDOWS KITS\10\INCLUDE\10.0.19041.0\UM\RPCNSIP.H
C:\PROGRAM FILES (X86)\WINDOWS KITS\10\INCLUDE\10.0.19041.0\SHARED\RPCSAL.H
C:\PROGRAM FILES (X86)\WINDOWS KITS\10\INCLUDE\10.0.19041.0\SHARED\WTYPESBASE.H
C:\PROGRAM FILES (X86)\WINDOWS KITS\10\INCLUDE\10.0.19041.0\UM\WINIOCTL.H
C:\PROGRAM FILES (X86)\WINDOWS KITS\10\INCLUDE\10.0.19041.0\SHARED\WINSMCRD.H
C:\PROGRAM FILES (X86)\WINDOWS KITS\10\INCLUDE\10.0.19041.0\UM\WINSPOOL.H
C:\PROGRAM FILES (X86)\WINDOWS KITS\10\INCLUDE\10.0.19041.0\UM\PRSHT.H
C:\PROGRAM FILES (X86)\WINDOWS KITS\10\INCLUDE\10.0.19041.0\UM\OLE2.H
C:\PROGRAM FILES (X86)\WINDOWS KITS\10\INCLUDE\10.0.19041.0\UM\OBJBASE.H
C:\PROGRAM FILES (X86)\WINDOWS KITS\10\INCLUDE\10.0.19041.0\UM\COMBASEAPI.H
C:\PROGRAM FILES (X86)\WINDOWS KITS\10\INCLUDE\10.0.19041.0\UM\UNKNWNBASE.H
C:\PROGRAM FILES (X86)\WINDOWS KITS\10\INCLUDE\10.0.19041.0\UM\OBJIDLBASE.H
C:\PROGRAM FILES (X86)\WINDOWS KITS\10\INCLUDE\10.0.19041.0\UM\CGUID.H
C:\PROGRAM FILES (X86)\WINDOWS KITS\10\INCLUDE\10.0.19041.0\UM\COML2API.H
C:\PROGRAM FILES (X86)\WINDOWS KITS\10\INCLUDE\10.0.19041.0\UM\OBJIDL.H
C:\PROGRAM FILES (X86)\WINDOWS KITS\10\INCLUDE\10.0.19041.0\UM\UNKNWN.H
C:\PROGRAM FILES (X86)\WINDOWS KITS\10\INCLUDE\10.0.19041.0\UM\PROPIDLBASE.H
C:\PROGRAM FILES (X86)\WINDOWS KITS\10\INCLUDE\10.0.19041.0\UM\OAIDL.H
C:\PROGRAM FILES (X86)\WINDOWS KITS\10\INCLUDE\10.0.19041.0\UM\URLMON.H
C:\PROGRAM FILES (X86)\WINDOWS KITS\10\INCLUDE\10.0.19041.0\UM\OLEIDL.H
C:\PROGRAM FILES (X86)\WINDOWS KITS\10\INCLUDE\10.0.19041.0\UM\SERVPROV.H
C:\PROGRAM FILES (X86)\WINDOWS KITS\10\INCLUDE\10.0.19041.0\UM\MSXML.H
C:\PROGRAM FILES (X86)\WINDOWS KITS\10\INCLUDE\10.0.19041.0\UM\PROPIDL.H
C:\PROGRAM FILES (X86)\WINDOWS KITS\10\INCLUDE\10.0.19041.0\UM\OLEAUTO.H
C:\PROGRAM FILES (X86)\WINDOWS KITS\10\INCLUDE\10.0.19041.0\UM\COMMDLG.H
C:\PROGRAM FILES (X86)\WINDOWS KITS\10\INCLUDE\10.0.19041.0\SHARED\STRALIGN.H
C:\PROGRAM FILES (X86)\WINDOWS KITS\10\INCLUDE\10.0.19041.0\UM\WINSVC.H
C:\PROGRAM FILES (X86)\WINDOWS KITS\10\INCLUDE\10.0.19041.0\UM\MCX.H
C:\PROGRAM FILES (X86)\WINDOWS KITS\10\INCLUDE\10.0.19041.0\UM\IMM.H
C:\PROGRAM FILES (X86)\WINDOWS KITS\10\INCLUDE\10.0.19041.0\UM\IME_CMODES.H
C:\PROGRAM FILES\JUCE\MODULES\JUCE_AUDIO_PROCESSORS\FORMAT_TYPES\VST3_SDK\BASE\SOURCE\FOBJECT.CPP
C:\PROGRAM FILES\JUCE\MODULES\JUCE_AUDIO_PROCESSORS\FORMAT_TYPES\VST3_SDK\BASE\THREAD\INCLUDE\FLOCK.H
C:\PROGRAM FILES\MICROSOFT VISUAL STUDIO\2022\COMMUNITY\VC\TOOLS\MSVC\14.30.30705\INCLUDE\VECTOR
C:\PROGRAM FILES\MICROSOFT VISUAL STUDIO\2022\COMMUNITY\VC\TOOLS\MSVC\14.30.30705\INCLUDE\XMEMORY
C:\PROGRAM FILES\MICROSOFT VISUAL STUDIO\2022\COMMUNITY\VC\TOOLS\MSVC\14.30.30705\INCLUDE\LIMITS
C:\PROGRAM FILES\MICROSOFT VISUAL STUDIO\2022\COMMUNITY\VC\TOOLS\MSVC\14.30.30705\INCLUDE\CFLOAT
C:\PROGRAM FILES (X86)\WINDOWS KITS\10\INCLUDE\10.0.19041.0\UCRT\FLOAT.H
C:\PROGRAM FILES\MICROSOFT VISUAL STUDIO\2022\COMMUNITY\VC\TOOLS\MSVC\14.30.30705\INCLUDE\CLIMITS
C:\PROGRAM FILES\MICROSOFT VISUAL STUDIO\2022\COMMUNITY\VC\TOOLS\MSVC\14.30.30705\INCLUDE\CWCHAR
C:\PROGRAM FILES\MICROSOFT VISUAL STUDIO\2022\COMMUNITY\VC\TOOLS\MSVC\14.30.30705\INCLUDE\CSTDIO
C:\PROGRAM FILES (X86)\WINDOWS KITS\10\INCLUDE\10.0.19041.0\UCRT\STDIO.H
C:\PROGRAM FILES (X86)\WINDOWS KITS\10\INCLUDE\10.0.19041.0\UCRT\CORECRT_WSTDIO.H
C:\PROGRAM FILES (X86)\WINDOWS KITS\10\INCLUDE\10.0.19041.0\UCRT\CORECRT_STDIO_CONFIG.H
C:\PROGRAM FILES (X86)\WINDOWS KITS\10\INCLUDE\10.0.19041.0\UCRT\WCHAR.H
C:\PROGRAM FILES (X86)\WINDOWS KITS\10\INCLUDE\10.0.19041.0\UCRT\CORECRT_WCONIO.H
C:\PROGRAM FILES (X86)\WINDOWS KITS\10\INCLUDE\10.0.19041.0\UCRT\CORECRT_WDIRECT.H
C:\PROGRAM FILES (X86)\WINDOWS KITS\10\INCLUDE\10.0.19041.0\UCRT\CORECRT_WIO.H
C:\PROGRAM FILES (X86)\WINDOWS KITS\10\INCLUDE\10.0.19041.0\UCRT\CORECRT_SHARE.H
C:\PROGRAM FILES (X86)\WINDOWS KITS\10\INCLUDE\10.0.19041.0\UCRT\CORECRT_WPROCESS.H
C:\PROGRAM FILES (X86)\WINDOWS KITS\10\INCLUDE\10.0.19041.0\UCRT\CORECRT_WTIME.H
C:\PROGRAM FILES (X86)\WINDOWS KITS\10\INCLUDE\10.0.19041.0\UCRT\SYS\STAT.H
C:\PROGRAM FILES (X86)\WINDOWS KITS\10\INCLUDE\10.0.19041.0\UCRT\SYS\TYPES.H
C:\PROGRAM FILES\MICROSOFT VISUAL STUDIO\2022\COMMUNITY\VC\TOOLS\MSVC\14.30.30705\INCLUDE\INTRIN0.H
C:\PROGRAM FILES\MICROSOFT VISUAL STUDIO\2022\COMMUNITY\VC\TOOLS\MSVC\14.30.30705\INCLUDE\INTRIN0.INL.H
C:\PROGRAM FILES\MICROSOFT VISUAL STUDIO\2022\COMMUNITY\VC\TOOLS\MSVC\14.30.30705\INCLUDE\ISA_AVAILABILITY.H
C:\PROGRAM FILES\MICROSOFT VISUAL STUDIO\2022\COMMUNITY\VC\TOOLS\MSVC\14.30.30705\INCLUDE\NEW
C:\PROGRAM FILES\MICROSOFT VISUAL STUDIO\2022\COMMUNITY\VC\TOOLS\MSVC\14.30.30705\INCLUDE\EXCEPTION
C:\PROGRAM FILES\MICROSOFT VISUAL STUDIO\2022\COMMUNITY\VC\TOOLS\MSVC\14.30.30705\INCLUDE\YVALS.H
C:\PROGRAM FILES (X86)\WINDOWS KITS\10\INCLUDE\10.0.19041.0\UCRT\CRTDBG.H
C:\PROGRAM FILES\MICROSOFT VISUAL STUDIO\2022\COMMUNITY\VC\TOOLS\MSVC\14.30.30705\INCLUDE\VCRUNTIME_NEW_DEBUG.H
C:\PROGRAM FILES\MICROSOFT VISUAL STUDIO\2022\COMMUNITY\VC\TOOLS\MSVC\14.30.30705\INCLUDE\VCRUNTIME_NEW.H
C:\PROGRAM FILES\MICROSOFT VISUAL STUDIO\2022\COMMUNITY\VC\TOOLS\MSVC\14.30.30705\INCLUDE\CRTDEFS.H
C:\PROGRAM FILES\MICROSOFT VISUAL STUDIO\2022\COMMUNITY\VC\TOOLS\MSVC\14.30.30705\INCLUDE\USE_ANSI.H
C:\PROGRAM FILES (X86)\WINDOWS KITS\10\INCLUDE\10.0.19041.0\UCRT\MALLOC.H
C:\PROGRAM FILES\MICROSOFT VISUAL STUDIO\2022\COMMUNITY\VC\TOOLS\MSVC\14.30.30705\INCLUDE\VCRUNTIME_EXCEPTION.H
C:\PROGRAM FILES\MICROSOFT VISUAL STUDIO\2022\COMMUNITY\VC\TOOLS\MSVC\14.30.30705\INCLUDE\EH.H
C:\PROGRAM FILES (X86)\WINDOWS KITS\10\INCLUDE\10.0.19041.0\UCRT\CORECRT_TERMINATE.H
C:\PROGRAM FILES\MICROSOFT VISUAL STUDIO\2022\COMMUNITY\VC\TOOLS\MSVC\14.30.30705\INCLUDE\XATOMIC.H
C:\PROGRAM FILES\MICROSOFT VISUAL STUDIO\2022\COMMUNITY\VC\TOOLS\MSVC\14.30.30705\INCLUDE\XUTILITY
C:\PROGRAM FILES\JUCE\MODULES\JUCE_AUDIO_PROCESSORS\FORMAT_TYPES\VST3_SDK\BASE\SOURCE\FSTREAMER.CPP
C:\PROGRAM FILES\JUCE\MODULES\JUCE_AUDIO_PROCESSORS\FORMAT_TYPES\VST3_SDK\BASE\SOURCE\FSTREAMER.H
C:\PROGRAM FILES\JUCE\MODULES\JUCE_AUDIO_PROCESSORS\FORMAT_TYPES\VST3_SDK\PLUGINTERFACES\BASE\IBSTREAM.H
C:\PROGRAM FILES\JUCE\MODULES\JUCE_AUDIO_PROCESSORS\FORMAT_TYPES\VST3_SDK\BASE\SOURCE\FSTRING.CPP
C:\PROGRAM FILES\JUCE\MODULES\JUCE_AUDIO_PROCESSORS\FORMAT_TYPES\VST3_SDK\PLUGINTERFACES\BASE\FUTILS.H
C:\PROGRAM FILES\JUCE\MODULES\JUCE_AUDIO_PROCESSORS\FORMAT_TYPES\VST3_SDK\PLUGINTERFACES\BASE\FVARIANT.H
C:\PROGRAM FILES\MICROSOFT VISUAL STUDIO\2022\COMMUNITY\VC\TOOLS\MSVC\14.30.30705\INCLUDE\CCTYPE
C:\PROGRAM FILES\JUCE\MODULES\JUCE_AUDIO_PROCESSORS\FORMAT_TYPES\VST3_SDK\BASE\THREAD\SOURCE\FLOCK.CPP
C:\PROGRAM FILES\JUCE\MODULES\JUCE_AUDIO_PROCESSORS\FORMAT_TYPES\VST3_SDK\PLUGINTERFACES\BASE\COREIIDS.CPP
C:\PROGRAM FILES\JUCE\MODULES\JUCE_AUDIO_PROCESSORS\FORMAT_TYPES\VST3_SDK\PLUGINTERFACES\BASE\ICLONEABLE.H
C:\PROGRAM FILES\JUCE\MODULES\JUCE_AUDIO_PROCESSORS\FORMAT_TYPES\VST3_SDK\PLUGINTERFACES\BASE\IPLUGINBASE.H
C:\PROGRAM FILES\JUCE\MODULES\JUCE_AUDIO_PROCESSORS\FORMAT_TYPES\VST3_SDK\BASE\SOURCE\UPDATEHANDLER.CPP
C:\PROGRAM FILES\JUCE\MODULES\JUCE_AUDIO_PROCESSORS\FORMAT_TYPES\VST3_SDK\BASE\SOURCE\UPDATEHANDLER.H
C:\PROGRAM FILES\JUCE\MODULES\JUCE_AUDIO_PROCESSORS\FORMAT_TYPES\VST3_SDK\BASE\SOURCE\CLASSFACTORYHELPERS.H
C:\PROGRAM FILES\MICROSOFT VISUAL STUDIO\2022\COMMUNITY\VC\TOOLS\MSVC\14.30.30705\INCLUDE\UNORDERED_MAP
C:\PROGRAM FILES\MICROSOFT VISUAL STUDIO\2022\COMMUNITY\VC\TOOLS\MSVC\14.30.30705\INCLUDE\XHASH
C:\PROGRAM FILES\MICROSOFT VISUAL STUDIO\2022\COMMUNITY\VC\TOOLS\MSVC\14.30.30705\INCLUDE\CMATH
C:\PROGRAM FILES\MICROSOFT VISUAL STUDIO\2022\COMMUNITY\VC\TOOLS\MSVC\14.30.30705\INCLUDE\LIST
C:\PROGRAM FILES\MICROSOFT VISUAL STUDIO\2022\COMMUNITY\VC\TOOLS\MSVC\14.30.30705\INCLUDE\TUPLE
C:\PROGRAM FILES\MICROSOFT VISUAL STUDIO\2022\COMMUNITY\VC\TOOLS\MSVC\14.30.30705\INCLUDE\XBIT_OPS.H
C:\PROGRAM FILES\MICROSOFT VISUAL STUDIO\2022\COMMUNITY\VC\TOOLS\MSVC\14.30.30705\INCLUDE\XSTRING
C:\PROGRAM FILES\MICROSOFT VISUAL STUDIO\2022\COMMUNITY\VC\TOOLS\MSVC\14.30.30705\INCLUDE\IOSFWD
C:\PROGRAM FILES\MICROSOFT VISUAL STUDIO\2022\COMMUNITY\VC\TOOLS\MSVC\14.30.30705\INCLUDE\DEQUE
C:\PROGRAM FILES\MICROSOFT VISUAL STUDIO\2022\COMMUNITY\VC\TOOLS\MSVC\14.30.30705\INCLUDE\ALGORITHM
C:\PROGRAM FILES\JUCE\MODULES\JUCE_AUDIO_PROCESSORS\FORMAT_TYPES\VST3_SDK\PLUGINTERFACES\BASE\CONSTSTRINGTABLE.CPP
C:\PROGRAM FILES\JUCE\MODULES\JUCE_AUDIO_PROCESSORS\FORMAT_TYPES\VST3_SDK\PLUGINTERFACES\BASE\CONSTSTRINGTABLE.H
C:\PROGRAM FILES\MICROSOFT VISUAL STUDIO\2022\COMMUNITY\VC\TOOLS\MSVC\14.30.30705\INCLUDE\MAP
C:\PROGRAM FILES\MICROSOFT VISUAL STUDIO\2022\COMMUNITY\VC\TOOLS\MSVC\14.30.30705\INCLUDE\XTREE
C:\PROGRAM FILES\JUCE\MODULES\JUCE_AUDIO_PROCESSORS\FORMAT_TYPES\VST3_SDK\PLUGINTERFACES\BASE\FUNKNOWN.CPP
C:\PROGRAM FILES\JUCE\MODULES\JUCE_AUDIO_PROCESSORS\FORMAT_TYPES\VST3_SDK\PLUGINTERFACES\BASE\USTRING.CPP
C:\PROGRAM FILES\JUCE\MODULES\JUCE_AUDIO_PROCESSORS\FORMAT_TYPES\VST3_SDK\PLUGINTERFACES\BASE\USTRING.H
C:\PROGRAM FILES\JUCE\MODULES\JUCE_AUDIO_PROCESSORS\FORMAT_TYPES\VST3_SDK\PLUGINTERFACES\GUI\IPLUGVIEW.H
C:\PROGRAM FILES\JUCE\MODULES\JUCE_AUDIO_PROCESSORS\FORMAT_TYPES\VST3_SDK\PLUGINTERFACES\BASE\TYPESIZECHECK.H
C:\PROGRAM FILES\JUCE\MODULES\JUCE_AUDIO_PROCESSORS\FORMAT_TYPES\VST3_SDK\PLUGINTERFACES\GUI\IPLUGVIEWCONTENTSCALESUPPORT.H
C:\PROGRAM FILES\JUCE\MODULES\JUCE_AUDIO_PROCESSORS\FORMAT_TYPES\VST3_SDK\PLUGINTERFACES\BASE\FALIGNPUSH.H
C:\PROGRAM FILES\JUCE\MODULES\JUCE_AUDIO_PROCESSORS\FORMAT_TYPES\VST3_SDK\PLUGINTERFACES\BASE\FALIGNPOP.H
C:\PROGRAM FILES\JUCE\MODULES\JUCE_AUDIO_PROCESSORS\FORMAT_TYPES\VST3_SDK\PLUGINTERFACES\VST\IVSTMIDICONTROLLERS.H
C:\PROGRAM FILES\JUCE\MODULES\JUCE_AUDIO_PROCESSORS\FORMAT_TYPES\VST3_SDK\PLUGINTERFACES\VST\IVSTCHANNELCONTEXTINFO.H
C:\PROGRAM FILES\JUCE\MODULES\JUCE_AUDIO_PROCESSORS\FORMAT_TYPES\VST3_SDK\PLUGINTERFACES\VST\IVSTATTRIBUTES.H
C:\PROGRAM FILES\JUCE\MODULES\JUCE_AUDIO_PROCESSORS\FORMAT_TYPES\VST3_SDK\PUBLIC.SDK\SOURCE\COMMON\MEMORYSTREAM.CPP
C:\PROGRAM FILES\JUCE\MODULES\JUCE_AUDIO_PROCESSORS\FORMAT_TYPES\VST3_SDK\PUBLIC.SDK\SOURCE\COMMON\MEMORYSTREAM.H
C:\PROGRAM FILES\JUCE\MODULES\JUCE_AUDIO_PROCESSORS\FORMAT_TYPES\VST3_SDK\PUBLIC.SDK\SOURCE\COMMON\PLUGINVIEW.CPP
C:\PROGRAM FILES\JUCE\MODULES\JUCE_AUDIO_PROCESSORS\FORMAT_TYPES\VST3_SDK\PUBLIC.SDK\SOURCE\COMMON\PLUGINVIEW.H
C:\PROGRAM FILES\JUCE\MODULES\JUCE_AUDIO_PROCESSORS\FORMAT_TYPES\VST3_SDK\PUBLIC.SDK\SOURCE\VST\VSTEDITCONTROLLER.CPP
C:\PROGRAM FILES\JUCE\MODULES\JUCE_AUDIO_PROCESSORS\FORMAT_TYPES\VST3_SDK\PUBLIC.SDK\SOURCE\VST\VSTEDITCONTROLLER.H
C:\PROGRAM FILES\JUCE\MODULES\JUCE_AUDIO_PROCESSORS\FORMAT_TYPES\VST3_SDK\PUBLIC.SDK\SOURCE\VST\VSTCOMPONENTBASE.H
C:\PROGRAM FILES\JUCE\MODULES\JUCE_AUDIO_PROCESSORS\FORMAT_TYPES\VST3_SDK\PLUGINTERFACES\VST\IVSTMESSAGE.H
C:\PROGRAM FILES\JUCE\MODULES\JUCE_AUDIO_PROCESSORS\FORMAT_TYPES\VST3_SDK\PLUGINTERFACES\VST\IVSTHOSTAPPLICATION.H
C:\PROGRAM FILES\JUCE\MODULES\JUCE_AUDIO_PROCESSORS\FORMAT_TYPES\VST3_SDK\PUBLIC.SDK\SOURCE\VST\VSTPARAMETERS.H
C:\PROGRAM FILES\JUCE\MODULES\JUCE_AUDIO_PROCESSORS\FORMAT_TYPES\VST3_SDK\PLUGINTERFACES\VST\IVSTEDITCONTROLLER.H
C:\PROGRAM FILES\JUCE\MODULES\JUCE_AUDIO_PROCESSORS\FORMAT_TYPES\VST3_SDK\PLUGINTERFACES\VST\IVSTUNITS.H
C:\PROGRAM FILES\JUCE\MODULES\JUCE_AUDIO_PROCESSORS\FORMAT_TYPES\VST3_SDK\PUBLIC.SDK\SOURCE\VST\VSTBUS.CPP
C:\PROGRAM FILES\JUCE\MODULES\JUCE_AUDIO_PROCESSORS\FORMAT_TYPES\VST3_SDK\PUBLIC.SDK\SOURCE\VST\VSTBUS.H
C:\PROGRAM FILES\JUCE\MODULES\JUCE_AUDIO_PROCESSORS\FORMAT_TYPES\VST3_SDK\PLUGINTERFACES\VST\IVSTCOMPONENT.H
C:\PROGRAM FILES\JUCE\MODULES\JUCE_AUDIO_PROCESSORS\FORMAT_TYPES\VST3_SDK\PLUGINTERFACES\VST\IVSTAUDIOPROCESSOR.H
C:\PROGRAM FILES\JUCE\MODULES\JUCE_AUDIO_PROCESSORS\FORMAT_TYPES\VST3_SDK\PLUGINTERFACES\VST\VSTSPEAKER.H
C:\PROGRAM FILES\JUCE\MODULES\JUCE_AUDIO_PROCESSORS\FORMAT_TYPES\VST3_SDK\PUBLIC.SDK\SOURCE\VST\VSTINITIIDS.CPP
C:\PROGRAM FILES\JUCE\MODULES\JUCE_AUDIO_PROCESSORS\FORMAT_TYPES\VST3_SDK\PLUGINTERFACES\VST\IVSTAUTOMATIONSTATE.H
C:\PROGRAM FILES\JUCE\MODULES\JUCE_AUDIO_PROCESSORS\FORMAT_TYPES\VST3_SDK\PLUGINTERFACES\VST\IVSTCONTEXTMENU.H
C:\PROGRAM FILES\JUCE\MODULES\JUCE_AUDIO_PROCESSORS\FORMAT_TYPES\VST3_SDK\PLUGINTERFACES\VST\IVSTEVENTS.H
C:\PROGRAM FILES\JUCE\MODULES\JUCE_AUDIO_PROCESSORS\FORMAT_TYPES\VST3_SDK\PLUGINTERFACES\VST\IVSTPROCESSCONTEXT.H
C:\PROGRAM FILES\JUCE\MODULES\JUCE_AUDIO_PROCESSORS\FORMAT_TYPES\VST3_SDK\PLUGINTERFACES\VST\IVSTNOTEEXPRESSION.H
C:\PROGRAM FILES\JUCE\MODULES\JUCE_AUDIO_PROCESSORS\FORMAT_TYPES\VST3_SDK\PLUGINTERFACES\VST\IVSTINTERAPPAUDIO.H
C:\PROGRAM FILES\JUCE\MODULES\JUCE_AUDIO_PROCESSORS\FORMAT_TYPES\VST3_SDK\PLUGINTERFACES\VST\IVSTMIDILEARN.H
C:\PROGRAM FILES\JUCE\MODULES\JUCE_AUDIO_PROCESSORS\FORMAT_TYPES\VST3_SDK\PLUGINTERFACES\VST\IVSTPARAMETERCHANGES.H
C:\PROGRAM FILES\JUCE\MODULES\JUCE_AUDIO_PROCESSORS\FORMAT_TYPES\VST3_SDK\PLUGINTERFACES\VST\IVSTPARAMETERFUNCTIONNAME.H
C:\PROGRAM FILES\JUCE\MODULES\JUCE_AUDIO_PROCESSORS\FORMAT_TYPES\VST3_SDK\PLUGINTERFACES\VST\IVSTPHYSICALUI.H
C:\PROGRAM FILES\JUCE\MODULES\JUCE_AUDIO_PROCESSORS\FORMAT_TYPES\VST3_SDK\PLUGINTERFACES\VST\IVSTPLUGINTERFACESUPPORT.H
C:\PROGRAM FILES\JUCE\MODULES\JUCE_AUDIO_PROCESSORS\FORMAT_TYPES\VST3_SDK\PLUGINTERFACES\VST\IVSTPLUGVIEW.H
C:\PROGRAM FILES\JUCE\MODULES\JUCE_AUDIO_PROCESSORS\FORMAT_TYPES\VST3_SDK\PLUGINTERFACES\VST\IVSTPREFETCHABLESUPPORT.H
C:\PROGRAM FILES\JUCE\MODULES\JUCE_AUDIO_PROCESSORS\FORMAT_TYPES\VST3_SDK\PLUGINTERFACES\VST\IVSTREPRESENTATION.H
C:\PROGRAM FILES\JUCE\MODULES\JUCE_AUDIO_PROCESSORS\FORMAT_TYPES\VST3_SDK\PLUGINTERFACES\VST\IVSTTESTPLUGPROVIDER.H
C:\PROGRAM FILES\JUCE\MODULES\JUCE_AUDIO_PROCESSORS\FORMAT_TYPES\VST3_SDK\PUBLIC.SDK\SOURCE\VST\VSTCOMPONENT.CPP
C:\PROGRAM FILES\JUCE\MODULES\JUCE_AUDIO_PROCESSORS\FORMAT_TYPES\VST3_SDK\PUBLIC.SDK\SOURCE\VST\VSTCOMPONENT.H
C:\PROGRAM FILES\JUCE\MODULES\JUCE_AUDIO_PROCESSORS\FORMAT_TYPES\VST3_SDK\PUBLIC.SDK\SOURCE\VST\VSTCOMPONENTBASE.CPP
C:\PROGRAM FILES\JUCE\MODULES\JUCE_AUDIO_PROCESSORS\FORMAT_TYPES\VST3_SDK\PUBLIC.SDK\SOURCE\VST\VSTPARAMETERS.CPP
C:\PROGRAM FILES\JUCE\MODULES\JUCE_AUDIO_PROCESSORS\FORMAT_TYPES\VST3_SDK\PUBLIC.SDK\SOURCE\VST\VSTPRESETFILE.CPP
C:\PROGRAM FILES\JUCE\MODULES\JUCE_AUDIO_PROCESSORS\FORMAT_TYPES\VST3_SDK\PUBLIC.SDK\SOURCE\VST\VSTPRESETFILE.H
C:\PROGRAM FILES\JUCE\MODULES\JUCE_AUDIO_PROCESSORS\FORMAT_TYPES\VST3_SDK\PUBLIC.SDK\SOURCE\VST\HOSTING\HOSTCLASSES.CPP
C:\PROGRAM FILES\JUCE\MODULES\JUCE_AUDIO_PROCESSORS\FORMAT_TYPES\VST3_SDK\PUBLIC.SDK\SOURCE\VST\HOSTING\HOSTCLASSES.H
C:\PROGRAM FILES\JUCE\MODULES\JUCE_AUDIO_PROCESSORS\FORMAT_TYPES\VST3_SDK\PUBLIC.SDK\SOURCE\VST\HOSTING\PLUGINTERFACESUPPORT.H
C:\PROGRAM FILES\JUCE\MODULES\JUCE_AUDIO_PROCESSORS\FORMAT_TYPES\VST3_SDK\PUBLIC.SDK\SOURCE\VST\HOSTING\PLUGINTERFACESUPPORT.CPP
C:\PROGRAM FILES\JUCE\MODULES\JUCE_AUDIO_PLUGIN_CLIENT\UTILITY\JUCE_CHECKSETTINGMACROS.H
C:\PROGRAM FILES\JUCE\MODULES\JUCE_AUDIO_PLUGIN_CLIENT\UTILITY\JUCE_INCLUDESYSTEMHEADERS.H
C:\PROGRAM FILES\JUCE\MODULES\JUCE_AUDIO_PLUGIN_CLIENT\UTILITY\JUCE_INCLUDEMODULEHEADERS.H
C:\PROGRAM FILES\JUCE\MODULES\JUCE_AUDIO_PLUGIN_CLIENT\JUCE_AUDIO_PLUGIN_CLIENT.H
C:\PROGRAM FILES\JUCE\MODULES\JUCE_GUI_BASICS\JUCE_GUI_BASICS.H
C:\PROGRAM FILES\JUCE\MODULES\JUCE_GRAPHICS\JUCE_GRAPHICS.H
C:\PROGRAM FILES\JUCE\MODULES\JUCE_CORE\JUCE_CORE.H
C:\PROGRAM FILES\JUCE\MODULES\JUCE_CORE\SYSTEM\JUCE_STANDARDHEADER.H
C:\PROGRAM FILES\MICROSOFT VISUAL STUDIO\2022\COMMUNITY\VC\TOOLS\MSVC\14.30.30705\INCLUDE\ARRAY
C:\PROGRAM FILES\MICROSOFT VISUAL STUDIO\2022\COMMUNITY\VC\TOOLS\MSVC\14.30.30705\INCLUDE\ATOMIC
C:\PROGRAM FILES\MICROSOFT VISUAL STUDIO\2022\COMMUNITY\VC\TOOLS\MSVC\14.30.30705\INCLUDE\XTHREADS.H
C:\PROGRAM FILES\MICROSOFT VISUAL STUDIO\2022\COMMUNITY\VC\TOOLS\MSVC\14.30.30705\INCLUDE\XTIMEC.H
C:\PROGRAM FILES\MICROSOFT VISUAL STUDIO\2022\COMMUNITY\VC\TOOLS\MSVC\14.30.30705\INCLUDE\CTIME
C:\PROGRAM FILES (X86)\WINDOWS KITS\10\INCLUDE\10.0.19041.0\UCRT\TIME.H
C:\PROGRAM FILES\MICROSOFT VISUAL STUDIO\2022\COMMUNITY\VC\TOOLS\MSVC\14.30.30705\INCLUDE\CONDITION_VARIABLE
C:\PROGRAM FILES\MICROSOFT VISUAL STUDIO\2022\COMMUNITY\VC\TOOLS\MSVC\14.30.30705\INCLUDE\CHRONO
C:\PROGRAM FILES\MICROSOFT VISUAL STUDIO\2022\COMMUNITY\VC\TOOLS\MSVC\14.30.30705\INCLUDE\RATIO
C:\PROGRAM FILES\MICROSOFT VISUAL STUDIO\2022\COMMUNITY\VC\TOOLS\MSVC\14.30.30705\INCLUDE\MEMORY
C:\PROGRAM FILES\MICROSOFT VISUAL STUDIO\2022\COMMUNITY\VC\TOOLS\MSVC\14.30.30705\INCLUDE\TYPEINFO
C:\PROGRAM FILES\MICROSOFT VISUAL STUDIO\2022\COMMUNITY\VC\TOOLS\MSVC\14.30.30705\INCLUDE\VCRUNTIME_TYPEINFO.H
C:\PROGRAM FILES\MICROSOFT VISUAL STUDIO\2022\COMMUNITY\VC\TOOLS\MSVC\14.30.30705\INCLUDE\MUTEX
C:\PROGRAM FILES\MICROSOFT VISUAL STUDIO\2022\COMMUNITY\VC\TOOLS\MSVC\14.30.30705\INCLUDE\SYSTEM_ERROR
C:\PROGRAM FILES\MICROSOFT VISUAL STUDIO\2022\COMMUNITY\VC\TOOLS\MSVC\14.30.30705\INCLUDE\__MSVC_SYSTEM_ERROR_ABI.HPP
C:\PROGRAM FILES\MICROSOFT VISUAL STUDIO\2022\COMMUNITY\VC\TOOLS\MSVC\14.30.30705\INCLUDE\CERRNO
C:\PROGRAM FILES\MICROSOFT VISUAL STUDIO\2022\COMMUNITY\VC\TOOLS\MSVC\14.30.30705\INCLUDE\STDEXCEPT
C:\PROGRAM FILES\MICROSOFT VISUAL STUDIO\2022\COMMUNITY\VC\TOOLS\MSVC\14.30.30705\INCLUDE\XCALL_ONCE.H
C:\PROGRAM FILES\MICROSOFT VISUAL STUDIO\2022\COMMUNITY\VC\TOOLS\MSVC\14.30.30705\INCLUDE\XERRC.H
C:\PROGRAM FILES\MICROSOFT VISUAL STUDIO\2022\COMMUNITY\VC\TOOLS\MSVC\14.30.30705\INCLUDE\THREAD
C:\PROGRAM FILES (X86)\WINDOWS KITS\10\INCLUDE\10.0.19041.0\UCRT\PROCESS.H
C:\PROGRAM FILES (X86)\WINDOWS KITS\10\INCLUDE\10.0.19041.0\UCRT\CORECRT_STARTUP.H
C:\PROGRAM FILES\MICROSOFT VISUAL STUDIO\2022\COMMUNITY\VC\TOOLS\MSVC\14.30.30705\INCLUDE\VCRUNTIME_STARTUP.H
C:\PROGRAM FILES\MICROSOFT VISUAL STUDIO\2022\COMMUNITY\VC\TOOLS\MSVC\14.30.30705\INCLUDE\FUNCTIONAL
C:\PROGRAM FILES\MICROSOFT VISUAL STUDIO\2022\COMMUNITY\VC\TOOLS\MSVC\14.30.30705\INCLUDE\IOMANIP
C:\PROGRAM FILES\MICROSOFT VISUAL STUDIO\2022\COMMUNITY\VC\TOOLS\MSVC\14.30.30705\INCLUDE\ISTREAM
C:\PROGRAM FILES\MICROSOFT VISUAL STUDIO\2022\COMMUNITY\VC\TOOLS\MSVC\14.30.30705\INCLUDE\OSTREAM
C:\PROGRAM FILES\MICROSOFT VISUAL STUDIO\2022\COMMUNITY\VC\TOOLS\MSVC\14.30.30705\INCLUDE\IOS
C:\PROGRAM FILES\MICROSOFT VISUAL STUDIO\2022\COMMUNITY\VC\TOOLS\MSVC\14.30.30705\INCLUDE\XLOCNUM
C:\PROGRAM FILES\MICROSOFT VISUAL STUDIO\2022\COMMUNITY\VC\TOOLS\MSVC\14.30.30705\INCLUDE\ITERATOR
C:\PROGRAM FILES\MICROSOFT VISUAL STUDIO\2022\COMMUNITY\VC\TOOLS\MSVC\14.30.30705\INCLUDE\STREAMBUF
C:\PROGRAM FILES\MICROSOFT VISUAL STUDIO\2022\COMMUNITY\VC\TOOLS\MSVC\14.30.30705\INCLUDE\XIOSBASE
C:\PROGRAM FILES (X86)\WINDOWS KITS\10\INCLUDE\10.0.19041.0\UCRT\SHARE.H
C:\PROGRAM FILES\MICROSOFT VISUAL STUDIO\2022\COMMUNITY\VC\TOOLS\MSVC\14.30.30705\INCLUDE\XLOCALE
C:\PROGRAM FILES\MICROSOFT VISUAL STUDIO\2022\COMMUNITY\VC\TOOLS\MSVC\14.30.30705\INCLUDE\XFACET
C:\PROGRAM FILES\MICROSOFT VISUAL STUDIO\2022\COMMUNITY\VC\TOOLS\MSVC\14.30.30705\INCLUDE\XLOCINFO
C:\PROGRAM FILES\MICROSOFT VISUAL STUDIO\2022\COMMUNITY\VC\TOOLS\MSVC\14.30.30705\INCLUDE\__MSVC_XLOCINFO_TYPES.HPP
C:\PROGRAM FILES\MICROSOFT VISUAL STUDIO\2022\COMMUNITY\VC\TOOLS\MSVC\14.30.30705\INCLUDE\CLOCALE
C:\PROGRAM FILES (X86)\WINDOWS KITS\10\INCLUDE\10.0.19041.0\UCRT\LOCALE.H
C:\PROGRAM FILES\MICROSOFT VISUAL STUDIO\2022\COMMUNITY\VC\TOOLS\MSVC\14.30.30705\INCLUDE\XLOCMON
C:\PROGRAM FILES\MICROSOFT VISUAL STUDIO\2022\COMMUNITY\VC\TOOLS\MSVC\14.30.30705\INCLUDE\XLOCTIME
C:\PROGRAM FILES\MICROSOFT VISUAL STUDIO\2022\COMMUNITY\VC\TOOLS\MSVC\14.30.30705\INCLUDE\IOSTREAM
C:\PROGRAM FILES\MICROSOFT VISUAL STUDIO\2022\COMMUNITY\VC\TOOLS\MSVC\14.30.30705\INCLUDE\NUMERIC
C:\PROGRAM FILES\MICROSOFT VISUAL STUDIO\2022\COMMUNITY\VC\TOOLS\MSVC\14.30.30705\INCLUDE\QUEUE
C:\PROGRAM FILES\MICROSOFT VISUAL STUDIO\2022\COMMUNITY\VC\TOOLS\MSVC\14.30.30705\INCLUDE\SSTREAM
C:\PROGRAM FILES\MICROSOFT VISUAL STUDIO\2022\COMMUNITY\VC\TOOLS\MSVC\14.30.30705\INCLUDE\STRING
C:\PROGRAM FILES\MICROSOFT VISUAL STUDIO\2022\COMMUNITY\VC\TOOLS\MSVC\14.30.30705\INCLUDE\TYPEINDEX
C:\PROGRAM FILES\MICROSOFT VISUAL STUDIO\2022\COMMUNITY\VC\TOOLS\MSVC\14.30.30705\INCLUDE\UNORDERED_SET
C:\PROGRAM FILES\JUCE\MODULES\JUCE_CORE\SYSTEM\JUCE_COMPILERSUPPORT.H
C:\PROGRAM FILES\JUCE\MODULES\JUCE_CORE\SYSTEM\JUCE_PLATFORMDEFS.H
C:\PROGRAM FILES\MICROSOFT VISUAL STUDIO\2022\COMMUNITY\VC\TOOLS\MSVC\14.30.30705\INCLUDE\INTRIN.H
C:\PROGRAM FILES\MICROSOFT VISUAL STUDIO\2022\COMMUNITY\VC\TOOLS\MSVC\14.30.30705\INCLUDE\SETJMP.H
C:\PROGRAM FILES\MICROSOFT VISUAL STUDIO\2022\COMMUNITY\VC\TOOLS\MSVC\14.30.30705\INCLUDE\IMMINTRIN.H
C:\PROGRAM FILES\MICROSOFT VISUAL STUDIO\2022\COMMUNITY\VC\TOOLS\MSVC\14.30.30705\INCLUDE\WMMINTRIN.H
C:\PROGRAM FILES\MICROSOFT VISUAL STUDIO\2022\COMMUNITY\VC\TOOLS\MSVC\14.30.30705\INCLUDE\NMMINTRIN.H
C:\PROGRAM FILES\MICROSOFT VISUAL STUDIO\2022\COMMUNITY\VC\TOOLS\MSVC\14.30.30705\INCLUDE\SMMINTRIN.H
C:\PROGRAM FILES\MICROSOFT VISUAL STUDIO\2022\COMMUNITY\VC\TOOLS\MSVC\14.30.30705\INCLUDE\TMMINTRIN.H
C:\PROGRAM FILES\MICROSOFT VISUAL STUDIO\2022\COMMUNITY\VC\TOOLS\MSVC\14.30.30705\INCLUDE\PMMINTRIN.H
C:\PROGRAM FILES\MICROSOFT VISUAL STUDIO\2022\COMMUNITY\VC\TOOLS\MSVC\14.30.30705\INCLUDE\EMMINTRIN.H
C:\PROGRAM FILES\MICROSOFT VISUAL STUDIO\2022\COMMUNITY\VC\TOOLS\MSVC\14.30.30705\INCLUDE\XMMINTRIN.H
C:\PROGRAM FILES\MICROSOFT VISUAL STUDIO\2022\COMMUNITY\VC\TOOLS\MSVC\14.30.30705\INCLUDE\MMINTRIN.H
C:\PROGRAM FILES\MICROSOFT VISUAL STUDIO\2022\COMMUNITY\VC\TOOLS\MSVC\14.30.30705\INCLUDE\ZMMINTRIN.H
C:\PROGRAM FILES\MICROSOFT VISUAL STUDIO\2022\COMMUNITY\VC\TOOLS\MSVC\14.30.30705\INCLUDE\AMMINTRIN.H
C:\PROGRAM FILES\JUCE\MODULES\JUCE_CORE\MEMORY\JUCE_MEMORY.H
C:\PROGRAM FILES\JUCE\MODULES\JUCE_CORE\MATHS\JUCE_MATHSFUNCTIONS.H
C:\PROGRAM FILES\JUCE\MODULES\JUCE_CORE\MEMORY\JUCE_BYTEORDER.H
C:\PROGRAM FILES\JUCE\MODULES\JUCE_CORE\MEMORY\JUCE_ATOMIC.H
C:\PROGRAM FILES\JUCE\MODULES\JUCE_CORE\TEXT\JUCE_CHARACTERFUNCTIONS.H
C:\PROGRAM FILES\JUCE\MODULES\JUCE_CORE\TEXT\JUCE_CHARPOINTER_UTF8.H
C:\PROGRAM FILES\JUCE\MODULES\JUCE_CORE\TEXT\JUCE_CHARPOINTER_UTF16.H
C:\PROGRAM FILES\JUCE\MODULES\JUCE_CORE\TEXT\JUCE_CHARPOINTER_UTF32.H
C:\PROGRAM FILES\JUCE\MODULES\JUCE_CORE\TEXT\JUCE_CHARPOINTER_ASCII.H
C:\PROGRAM FILES\JUCE\MODULES\JUCE_CORE\TEXT\JUCE_STRING.H
C:\PROGRAM FILES\JUCE\MODULES\JUCE_CORE\TEXT\JUCE_STRINGREF.H
C:\PROGRAM FILES\JUCE\MODULES\JUCE_CORE\LOGGING\JUCE_LOGGER.H
C:\PROGRAM FILES\JUCE\MODULES\JUCE_CORE\MEMORY\JUCE_LEAKEDOBJECTDETECTOR.H
C:\PROGRAM FILES\JUCE\MODULES\JUCE_CORE\MEMORY\JUCE_CONTAINERDELETEPOLICY.H
C:\PROGRAM FILES\JUCE\MODULES\JUCE_CORE\MEMORY\JUCE_HEAPBLOCK.H
C:\PROGRAM FILES\JUCE\MODULES\JUCE_CORE\MEMORY\JUCE_MEMORYBLOCK.H
C:\PROGRAM FILES\JUCE\MODULES\JUCE_CORE\MEMORY\JUCE_REFERENCECOUNTEDOBJECT.H
C:\PROGRAM FILES\JUCE\MODULES\JUCE_CORE\MEMORY\JUCE_SCOPEDPOINTER.H
C:\PROGRAM FILES\JUCE\MODULES\JUCE_CORE\MEMORY\JUCE_OPTIONALSCOPEDPOINTER.H
C:\PROGRAM FILES\JUCE\MODULES\JUCE_CORE\MEMORY\JUCE_SINGLETON.H
C:\PROGRAM FILES\JUCE\MODULES\JUCE_CORE\MEMORY\JUCE_WEAKREFERENCE.H
C:\PROGRAM FILES\JUCE\MODULES\JUCE_CORE\THREADS\JUCE_SCOPEDLOCK.H
C:\PROGRAM FILES\JUCE\MODULES\JUCE_CORE\THREADS\JUCE_CRITICALSECTION.H
C:\PROGRAM FILES\JUCE\MODULES\JUCE_CORE\MATHS\JUCE_RANGE.H
C:\PROGRAM FILES\JUCE\MODULES\JUCE_CORE\MATHS\JUCE_NORMALISABLERANGE.H
C:\PROGRAM FILES\JUCE\MODULES\JUCE_CORE\MATHS\JUCE_STATISTICSACCUMULATOR.H
C:\PROGRAM FILES\JUCE\MODULES\JUCE_CORE\CONTAINERS\JUCE_ELEMENTCOMPARATOR.H
C:\PROGRAM FILES\JUCE\MODULES\JUCE_CORE\CONTAINERS\JUCE_ARRAYALLOCATIONBASE.H
C:\PROGRAM FILES\JUCE\MODULES\JUCE_CORE\CONTAINERS\JUCE_ARRAYBASE.H
C:\PROGRAM FILES\JUCE\MODULES\JUCE_CORE\CONTAINERS\JUCE_ARRAY.H
C:\PROGRAM FILES\JUCE\MODULES\JUCE_CORE\CONTAINERS\JUCE_LINKEDLISTPOINTER.H
C:\PROGRAM FILES\JUCE\MODULES\JUCE_CORE\CONTAINERS\JUCE_LISTENERLIST.H
C:\PROGRAM FILES\JUCE\MODULES\JUCE_CORE\CONTAINERS\JUCE_OWNEDARRAY.H
C:\PROGRAM FILES\JUCE\MODULES\JUCE_CORE\CONTAINERS\JUCE_REFERENCECOUNTEDARRAY.H
C:\PROGRAM FILES\JUCE\MODULES\JUCE_CORE\CONTAINERS\JUCE_SCOPEDVALUESETTER.H
C:\PROGRAM FILES\JUCE\MODULES\JUCE_CORE\CONTAINERS\JUCE_SORTEDSET.H
C:\PROGRAM FILES\JUCE\MODULES\JUCE_CORE\CONTAINERS\JUCE_SPARSESET.H
C:\PROGRAM FILES\JUCE\MODULES\JUCE_CORE\CONTAINERS\JUCE_ABSTRACTFIFO.H
C:\PROGRAM FILES\JUCE\MODULES\JUCE_CORE\TEXT\JUCE_NEWLINE.H
C:\PROGRAM FILES\JUCE\MODULES\JUCE_CORE\TEXT\JUCE_STRINGPOOL.H
C:\PROGRAM FILES\JUCE\MODULES\JUCE_CORE\TEXT\JUCE_IDENTIFIER.H
C:\PROGRAM FILES\JUCE\MODULES\JUCE_CORE\TEXT\JUCE_STRINGARRAY.H
C:\PROGRAM FILES\JUCE\MODULES\JUCE_CORE\SYSTEM\JUCE_SYSTEMSTATS.H
C:\PROGRAM FILES\JUCE\MODULES\JUCE_CORE\MEMORY\JUCE_HEAVYWEIGHTLEAKEDOBJECTDETECTOR.H
C:\PROGRAM FILES\JUCE\MODULES\JUCE_CORE\TEXT\JUCE_STRINGPAIRARRAY.H
C:\PROGRAM FILES\JUCE\MODULES\JUCE_CORE\TEXT\JUCE_TEXTDIFF.H
C:\PROGRAM FILES\JUCE\MODULES\JUCE_CORE\TEXT\JUCE_LOCALISEDSTRINGS.H
C:\PROGRAM FILES\JUCE\MODULES\JUCE_CORE\TEXT\JUCE_BASE64.H
C:\PROGRAM FILES\JUCE\MODULES\JUCE_CORE\MISC\JUCE_FUNCTIONAL.H
C:\PROGRAM FILES\JUCE\MODULES\JUCE_CORE\MISC\JUCE_RESULT.H
C:\PROGRAM FILES\JUCE\MODULES\JUCE_CORE\MISC\JUCE_UUID.H
C:\PROGRAM FILES\JUCE\MODULES\JUCE_CORE\MISC\JUCE_CONSOLEAPPLICATION.H
C:\PROGRAM FILES\JUCE\MODULES\JUCE_CORE\CONTAINERS\JUCE_VARIANT.H
C:\PROGRAM FILES\JUCE\MODULES\JUCE_CORE\CONTAINERS\JUCE_NAMEDVALUESET.H
C:\PROGRAM FILES\JUCE\MODULES\JUCE_CORE\CONTAINERS\JUCE_DYNAMICOBJECT.H
C:\PROGRAM FILES\JUCE\MODULES\JUCE_CORE\CONTAINERS\JUCE_HASHMAP.H
C:\PROGRAM FILES\JUCE\MODULES\JUCE_CORE\TIME\JUCE_RELATIVETIME.H
C:\PROGRAM FILES\JUCE\MODULES\JUCE_CORE\TIME\JUCE_TIME.H
C:\PROGRAM FILES\JUCE\MODULES\JUCE_CORE\STREAMS\JUCE_INPUTSTREAM.H
C:\PROGRAM FILES\JUCE\MODULES\JUCE_CORE\STREAMS\JUCE_OUTPUTSTREAM.H
C:\PROGRAM FILES\JUCE\MODULES\JUCE_CORE\STREAMS\JUCE_BUFFEREDINPUTSTREAM.H
C:\PROGRAM FILES\JUCE\MODULES\JUCE_CORE\STREAMS\JUCE_MEMORYINPUTSTREAM.H
C:\PROGRAM FILES\JUCE\MODULES\JUCE_CORE\STREAMS\JUCE_MEMORYOUTPUTSTREAM.H
C:\PROGRAM FILES\JUCE\MODULES\JUCE_CORE\STREAMS\JUCE_SUBREGIONSTREAM.H
C:\PROGRAM FILES\JUCE\MODULES\JUCE_CORE\STREAMS\JUCE_INPUTSOURCE.H
C:\PROGRAM FILES\JUCE\MODULES\JUCE_CORE\FILES\JUCE_FILE.H
C:\PROGRAM FILES\JUCE\MODULES\JUCE_CORE\FILES\JUCE_DIRECTORYITERATOR.H
C:\PROGRAM FILES\JUCE\MODULES\JUCE_CORE\FILES\JUCE_RANGEDDIRECTORYITERATOR.H
C:\PROGRAM FILES\JUCE\MODULES\JUCE_CORE\FILES\JUCE_FILEINPUTSTREAM.H
C:\PROGRAM FILES\JUCE\MODULES\JUCE_CORE\FILES\JUCE_FILEOUTPUTSTREAM.H
C:\PROGRAM FILES\JUCE\MODULES\JUCE_CORE\FILES\JUCE_FILESEARCHPATH.H
C:\PROGRAM FILES\JUCE\MODULES\JUCE_CORE\FILES\JUCE_MEMORYMAPPEDFILE.H
C:\PROGRAM FILES\JUCE\MODULES\JUCE_CORE\FILES\JUCE_TEMPORARYFILE.H
C:\PROGRAM FILES\JUCE\MODULES\JUCE_CORE\FILES\JUCE_FILEFILTER.H
C:\PROGRAM FILES\JUCE\MODULES\JUCE_CORE\FILES\JUCE_WILDCARDFILEFILTER.H
C:\PROGRAM FILES\JUCE\MODULES\JUCE_CORE\STREAMS\JUCE_FILEINPUTSOURCE.H
C:\PROGRAM FILES\JUCE\MODULES\JUCE_CORE\LOGGING\JUCE_FILELOGGER.H
C:\PROGRAM FILES\JUCE\MODULES\JUCE_CORE\JAVASCRIPT\JUCE_JSON.H
C:\PROGRAM FILES\JUCE\MODULES\JUCE_CORE\JAVASCRIPT\JUCE_JAVASCRIPT.H
C:\PROGRAM FILES\JUCE\MODULES\JUCE_CORE\MATHS\JUCE_BIGINTEGER.H
C:\PROGRAM FILES\JUCE\MODULES\JUCE_CORE\MATHS\JUCE_EXPRESSION.H
C:\PROGRAM FILES\JUCE\MODULES\JUCE_CORE\MATHS\JUCE_RANDOM.H
C:\PROGRAM FILES\JUCE\MODULES\JUCE_CORE\MISC\JUCE_RUNTIMEPERMISSIONS.H
C:\PROGRAM FILES\JUCE\MODULES\JUCE_CORE\MISC\JUCE_WINDOWSREGISTRY.H
C:\PROGRAM FILES\JUCE\MODULES\JUCE_CORE\THREADS\JUCE_CHILDPROCESS.H
C:\PROGRAM FILES\JUCE\MODULES\JUCE_CORE\THREADS\JUCE_DYNAMICLIBRARY.H
C:\PROGRAM FILES\JUCE\MODULES\JUCE_CORE\THREADS\JUCE_HIGHRESOLUTIONTIMER.H
C:\PROGRAM FILES\JUCE\MODULES\JUCE_CORE\THREADS\JUCE_INTERPROCESSLOCK.H
C:\PROGRAM FILES\JUCE\MODULES\JUCE_CORE\THREADS\JUCE_PROCESS.H
C:\PROGRAM FILES\JUCE\MODULES\JUCE_CORE\THREADS\JUCE_SPINLOCK.H
C:\PROGRAM FILES\JUCE\MODULES\JUCE_CORE\THREADS\JUCE_WAITABLEEVENT.H
C:\PROGRAM FILES\JUCE\MODULES\JUCE_CORE\THREADS\JUCE_THREAD.H
C:\PROGRAM FILES\JUCE\MODULES\JUCE_CORE\THREADS\JUCE_THREADLOCALVALUE.H
C:\PROGRAM FILES\JUCE\MODULES\JUCE_CORE\THREADS\JUCE_THREADPOOL.H
C:\PROGRAM FILES\JUCE\MODULES\JUCE_CORE\THREADS\JUCE_TIMESLICETHREAD.H
C:\PROGRAM FILES\JUCE\MODULES\JUCE_CORE\THREADS\JUCE_READWRITELOCK.H
C:\PROGRAM FILES\JUCE\MODULES\JUCE_CORE\THREADS\JUCE_SCOPEDREADLOCK.H
C:\PROGRAM FILES\JUCE\MODULES\JUCE_CORE\THREADS\JUCE_SCOPEDWRITELOCK.H
C:\PROGRAM FILES\JUCE\MODULES\JUCE_CORE\NETWORK\JUCE_IPADDRESS.H
C:\PROGRAM FILES\JUCE\MODULES\JUCE_CORE\NETWORK\JUCE_MACADDRESS.H
C:\PROGRAM FILES\JUCE\MODULES\JUCE_CORE\NETWORK\JUCE_NAMEDPIPE.H
C:\PROGRAM FILES\JUCE\MODULES\JUCE_CORE\NETWORK\JUCE_SOCKET.H
C:\PROGRAM FILES\JUCE\MODULES\JUCE_CORE\NETWORK\JUCE_URL.H
C:\PROGRAM FILES\JUCE\MODULES\JUCE_CORE\NETWORK\JUCE_WEBINPUTSTREAM.H
C:\PROGRAM FILES\JUCE\MODULES\JUCE_CORE\STREAMS\JUCE_URLINPUTSOURCE.H
C:\PROGRAM FILES\JUCE\MODULES\JUCE_CORE\TIME\JUCE_PERFORMANCECOUNTER.H
C:\PROGRAM FILES\JUCE\MODULES\JUCE_CORE\UNIT_TESTS\JUCE_UNITTEST.H
C:\PROGRAM FILES\JUCE\MODULES\JUCE_CORE\XML\JUCE_XMLDOCUMENT.H
C:\PROGRAM FILES\JUCE\MODULES\JUCE_CORE\XML\JUCE_XMLELEMENT.H
C:\PROGRAM FILES\JUCE\MODULES\JUCE_CORE\ZIP\JUCE_GZIPCOMPRESSOROUTPUTSTREAM.H
C:\PROGRAM FILES\JUCE\MODULES\JUCE_CORE\ZIP\JUCE_GZIPDECOMPRESSORINPUTSTREAM.H
C:\PROGRAM FILES\JUCE\MODULES\JUCE_CORE\ZIP\JUCE_ZIPFILE.H
C:\PROGRAM FILES\JUCE\MODULES\JUCE_CORE\CONTAINERS\JUCE_PROPERTYSET.H
C:\PROGRAM FILES\JUCE\MODULES\JUCE_CORE\MEMORY\JUCE_SHAREDRESOURCEPOINTER.H
C:\PROGRAM FILES\JUCE\MODULES\JUCE_CORE\MEMORY\JUCE_ALLOCATIONHOOKS.H
C:\PROGRAM FILES\JUCE\MODULES\JUCE_EVENTS\JUCE_EVENTS.H
C:\PROGRAM FILES\JUCE\MODULES\JUCE_EVENTS\MESSAGES\JUCE_MESSAGEMANAGER.H
C:\PROGRAM FILES\JUCE\MODULES\JUCE_EVENTS\MESSAGES\JUCE_MESSAGE.H
C:\PROGRAM FILES\JUCE\MODULES\JUCE_EVENTS\MESSAGES\JUCE_MESSAGELISTENER.H
C:\PROGRAM FILES\JUCE\MODULES\JUCE_EVENTS\MESSAGES\JUCE_CALLBACKMESSAGE.H
C:\PROGRAM FILES\JUCE\MODULES\JUCE_EVENTS\MESSAGES\JUCE_DELETEDATSHUTDOWN.H
C:\PROGRAM FILES\JUCE\MODULES\JUCE_EVENTS\MESSAGES\JUCE_NOTIFICATIONTYPE.H
C:\PROGRAM FILES\JUCE\MODULES\JUCE_EVENTS\MESSAGES\JUCE_APPLICATIONBASE.H
C:\PROGRAM FILES\JUCE\MODULES\JUCE_EVENTS\MESSAGES\JUCE_INITIALISATION.H
C:\PROGRAM FILES\JUCE\MODULES\JUCE_EVENTS\MESSAGES\JUCE_MOUNTEDVOLUMELISTCHANGEDETECTOR.H
C:\PROGRAM FILES\JUCE\MODULES\JUCE_EVENTS\BROADCASTERS\JUCE_ACTIONBROADCASTER.H
C:\PROGRAM FILES\JUCE\MODULES\JUCE_EVENTS\BROADCASTERS\JUCE_ACTIONLISTENER.H
C:\PROGRAM FILES\JUCE\MODULES\JUCE_EVENTS\BROADCASTERS\JUCE_ASYNCUPDATER.H
C:\PROGRAM FILES\JUCE\MODULES\JUCE_EVENTS\BROADCASTERS\JUCE_CHANGELISTENER.H
C:\PROGRAM FILES\JUCE\MODULES\JUCE_EVENTS\BROADCASTERS\JUCE_CHANGEBROADCASTER.H
C:\PROGRAM FILES\JUCE\MODULES\JUCE_EVENTS\TIMERS\JUCE_TIMER.H
C:\PROGRAM FILES\JUCE\MODULES\JUCE_EVENTS\TIMERS\JUCE_MULTITIMER.H
C:\PROGRAM FILES\JUCE\MODULES\JUCE_EVENTS\INTERPROCESS\JUCE_INTERPROCESSCONNECTION.H
C:\PROGRAM FILES\JUCE\MODULES\JUCE_EVENTS\INTERPROCESS\JUCE_INTERPROCESSCONNECTIONSERVER.H
C:\PROGRAM FILES\JUCE\MODULES\JUCE_EVENTS\INTERPROCESS\JUCE_CONNECTEDCHILDPROCESS.H
C:\PROGRAM FILES\JUCE\MODULES\JUCE_EVENTS\INTERPROCESS\JUCE_NETWORKSERVICEDISCOVERY.H
C:\PROGRAM FILES\JUCE\MODULES\JUCE_EVENTS\NATIVE\JUCE_SCOPEDLOWPOWERMODEDISABLER.H
C:\PROGRAM FILES\JUCE\MODULES\JUCE_GRAPHICS\GEOMETRY\JUCE_AFFINETRANSFORM.H
C:\PROGRAM FILES\JUCE\MODULES\JUCE_GRAPHICS\GEOMETRY\JUCE_POINT.H
C:\PROGRAM FILES\JUCE\MODULES\JUCE_GRAPHICS\GEOMETRY\JUCE_LINE.H
C:\PROGRAM FILES\JUCE\MODULES\JUCE_GRAPHICS\GEOMETRY\JUCE_RECTANGLE.H
C:\PROGRAM FILES\JUCE\MODULES\JUCE_GRAPHICS\GEOMETRY\JUCE_PARALLELOGRAM.H
C:\PROGRAM FILES\JUCE\MODULES\JUCE_GRAPHICS\PLACEMENT\JUCE_JUSTIFICATION.H
C:\PROGRAM FILES\JUCE\MODULES\JUCE_GRAPHICS\GEOMETRY\JUCE_PATH.H
C:\PROGRAM FILES\JUCE\MODULES\JUCE_GRAPHICS\GEOMETRY\JUCE_RECTANGLELIST.H
C:\PROGRAM FILES\JUCE\MODULES\JUCE_GRAPHICS\COLOUR\JUCE_PIXELFORMATS.H
C:\PROGRAM FILES\JUCE\MODULES\JUCE_GRAPHICS\COLOUR\JUCE_COLOUR.H
C:\PROGRAM FILES\JUCE\MODULES\JUCE_GRAPHICS\COLOUR\JUCE_COLOURGRADIENT.H
C:\PROGRAM FILES\JUCE\MODULES\JUCE_GRAPHICS\COLOUR\JUCE_COLOURS.H
C:\PROGRAM FILES\JUCE\MODULES\JUCE_GRAPHICS\GEOMETRY\JUCE_BORDERSIZE.H
C:\PROGRAM FILES\JUCE\MODULES\JUCE_GRAPHICS\GEOMETRY\JUCE_EDGETABLE.H
C:\PROGRAM FILES\JUCE\MODULES\JUCE_GRAPHICS\GEOMETRY\JUCE_PATHITERATOR.H
C:\PROGRAM FILES\JUCE\MODULES\JUCE_GRAPHICS\GEOMETRY\JUCE_PATHSTROKETYPE.H
C:\PROGRAM FILES\JUCE\MODULES\JUCE_GRAPHICS\PLACEMENT\JUCE_RECTANGLEPLACEMENT.H
C:\PROGRAM FILES\JUCE\MODULES\JUCE_GRAPHICS\IMAGES\JUCE_IMAGECACHE.H
C:\PROGRAM FILES\JUCE\MODULES\JUCE_GRAPHICS\IMAGES\JUCE_IMAGECONVOLUTIONKERNEL.H
C:\PROGRAM FILES\JUCE\MODULES\JUCE_GRAPHICS\IMAGES\JUCE_IMAGEFILEFORMAT.H
C:\PROGRAM FILES\JUCE\MODULES\JUCE_GRAPHICS\FONTS\JUCE_TYPEFACE.H
C:\PROGRAM FILES\JUCE\MODULES\JUCE_GRAPHICS\FONTS\JUCE_FONT.H
C:\PROGRAM FILES\JUCE\MODULES\JUCE_GRAPHICS\FONTS\JUCE_ATTRIBUTEDSTRING.H
C:\PROGRAM FILES\JUCE\MODULES\JUCE_GRAPHICS\FONTS\JUCE_GLYPHARRANGEMENT.H
C:\PROGRAM FILES\JUCE\MODULES\JUCE_GRAPHICS\FONTS\JUCE_TEXTLAYOUT.H
C:\PROGRAM FILES\JUCE\MODULES\JUCE_GRAPHICS\FONTS\JUCE_CUSTOMTYPEFACE.H
C:\PROGRAM FILES\JUCE\MODULES\JUCE_GRAPHICS\CONTEXTS\JUCE_GRAPHICSCONTEXT.H
C:\PROGRAM FILES\JUCE\MODULES\JUCE_GRAPHICS\CONTEXTS\JUCE_LOWLEVELGRAPHICSCONTEXT.H
C:\PROGRAM FILES\JUCE\MODULES\JUCE_GRAPHICS\IMAGES\JUCE_IMAGE.H
C:\PROGRAM FILES\JUCE\MODULES\JUCE_GRAPHICS\COLOUR\JUCE_FILLTYPE.H
C:\PROGRAM FILES\JUCE\MODULES\JUCE_GRAPHICS\NATIVE\JUCE_RENDERINGHELPERS.H
C:\PROGRAM FILES\JUCE\MODULES\JUCE_GRAPHICS\CONTEXTS\JUCE_LOWLEVELGRAPHICSSOFTWARERENDERER.H
C:\PROGRAM FILES\JUCE\MODULES\JUCE_GRAPHICS\CONTEXTS\JUCE_LOWLEVELGRAPHICSPOSTSCRIPTRENDERER.H
C:\PROGRAM FILES\JUCE\MODULES\JUCE_GRAPHICS\EFFECTS\JUCE_IMAGEEFFECTFILTER.H
C:\PROGRAM FILES\JUCE\MODULES\JUCE_GRAPHICS\EFFECTS\JUCE_DROPSHADOWEFFECT.H
C:\PROGRAM FILES\JUCE\MODULES\JUCE_GRAPHICS\EFFECTS\JUCE_GLOWEFFECT.H
C:\PROGRAM FILES\JUCE\MODULES\JUCE_DATA_STRUCTURES\JUCE_DATA_STRUCTURES.H
C:\PROGRAM FILES\JUCE\MODULES\JUCE_DATA_STRUCTURES\UNDOMANAGER\JUCE_UNDOABLEACTION.H
C:\PROGRAM FILES\JUCE\MODULES\JUCE_DATA_STRUCTURES\UNDOMANAGER\JUCE_UNDOMANAGER.H
C:\PROGRAM FILES\JUCE\MODULES\JUCE_DATA_STRUCTURES\VALUES\JUCE_VALUE.H
C:\PROGRAM FILES\JUCE\MODULES\JUCE_DATA_STRUCTURES\VALUES\JUCE_VALUETREE.H
C:\PROGRAM FILES\JUCE\MODULES\JUCE_DATA_STRUCTURES\VALUES\JUCE_VALUETREESYNCHRONISER.H
C:\PROGRAM FILES\JUCE\MODULES\JUCE_DATA_STRUCTURES\VALUES\JUCE_CACHEDVALUE.H
C:\PROGRAM FILES\JUCE\MODULES\JUCE_DATA_STRUCTURES\VALUES\JUCE_VALUEWITHDEFAULT.H
C:\PROGRAM FILES\JUCE\MODULES\JUCE_DATA_STRUCTURES\APP_PROPERTIES\JUCE_PROPERTIESFILE.H
C:\PROGRAM FILES\JUCE\MODULES\JUCE_DATA_STRUCTURES\APP_PROPERTIES\JUCE_APPLICATIONPROPERTIES.H
C:\PROGRAM FILES\JUCE\MODULES\JUCE_GUI_BASICS\MOUSE\JUCE_MOUSECURSOR.H
C:\PROGRAM FILES\JUCE\MODULES\JUCE_GUI_BASICS\MOUSE\JUCE_MOUSELISTENER.H
C:\PROGRAM FILES\JUCE\MODULES\JUCE_GUI_BASICS\KEYBOARD\JUCE_MODIFIERKEYS.H
C:\PROGRAM FILES\JUCE\MODULES\JUCE_GUI_BASICS\MOUSE\JUCE_MOUSEINPUTSOURCE.H
C:\PROGRAM FILES\JUCE\MODULES\JUCE_GUI_BASICS\MOUSE\JUCE_MOUSEEVENT.H
C:\PROGRAM FILES\JUCE\MODULES\JUCE_GUI_BASICS\KEYBOARD\JUCE_KEYPRESS.H
C:\PROGRAM FILES\JUCE\MODULES\JUCE_GUI_BASICS\KEYBOARD\JUCE_KEYLISTENER.H
C:\PROGRAM FILES\JUCE\MODULES\JUCE_GUI_BASICS\COMPONENTS\JUCE_COMPONENTTRAVERSER.H
C:\PROGRAM FILES\JUCE\MODULES\JUCE_GUI_BASICS\COMPONENTS\JUCE_FOCUSTRAVERSER.H
C:\PROGRAM FILES\JUCE\MODULES\JUCE_GUI_BASICS\COMPONENTS\JUCE_MODALCOMPONENTMANAGER.H
C:\PROGRAM FILES\JUCE\MODULES\JUCE_GUI_BASICS\COMPONENTS\JUCE_COMPONENTLISTENER.H
C:\PROGRAM FILES\JUCE\MODULES\JUCE_GUI_BASICS\COMPONENTS\JUCE_CACHEDCOMPONENTIMAGE.H
C:\PROGRAM FILES\JUCE\MODULES\JUCE_GUI_BASICS\COMPONENTS\JUCE_COMPONENT.H
C:\PROGRAM FILES\JUCE\MODULES\JUCE_GUI_BASICS\LAYOUT\JUCE_COMPONENTANIMATOR.H
C:\PROGRAM FILES\JUCE\MODULES\JUCE_GUI_BASICS\DESKTOP\JUCE_DESKTOP.H
C:\PROGRAM FILES\JUCE\MODULES\JUCE_GUI_BASICS\DESKTOP\JUCE_DISPLAYS.H
C:\PROGRAM FILES\JUCE\MODULES\JUCE_GUI_BASICS\LAYOUT\JUCE_COMPONENTBOUNDSCONSTRAINER.H
C:\PROGRAM FILES\JUCE\MODULES\JUCE_GUI_BASICS\MOUSE\JUCE_COMPONENTDRAGGER.H
C:\PROGRAM FILES\JUCE\MODULES\JUCE_GUI_BASICS\MOUSE\JUCE_DRAGANDDROPTARGET.H
C:\PROGRAM FILES\JUCE\MODULES\JUCE_GUI_BASICS\MOUSE\JUCE_DRAGANDDROPCONTAINER.H
C:\PROGRAM FILES\JUCE\MODULES\JUCE_GUI_BASICS\MOUSE\JUCE_FILEDRAGANDDROPTARGET.H
C:\PROGRAM FILES\JUCE\MODULES\JUCE_GUI_BASICS\MOUSE\JUCE_SELECTEDITEMSET.H
C:\PROGRAM FILES\JUCE\MODULES\JUCE_GUI_BASICS\MOUSE\JUCE_MOUSEINACTIVITYDETECTOR.H
C:\PROGRAM FILES\JUCE\MODULES\JUCE_GUI_BASICS\MOUSE\JUCE_TEXTDRAGANDDROPTARGET.H
C:\PROGRAM FILES\JUCE\MODULES\JUCE_GUI_BASICS\MOUSE\JUCE_TOOLTIPCLIENT.H
C:\PROGRAM FILES\JUCE\MODULES\JUCE_GUI_BASICS\KEYBOARD\JUCE_CARETCOMPONENT.H
C:\PROGRAM FILES\JUCE\MODULES\JUCE_GUI_BASICS\KEYBOARD\JUCE_KEYBOARDFOCUSTRAVERSER.H
C:\PROGRAM FILES\JUCE\MODULES\JUCE_GUI_BASICS\KEYBOARD\JUCE_SYSTEMCLIPBOARD.H
C:\PROGRAM FILES\JUCE\MODULES\JUCE_GUI_BASICS\KEYBOARD\JUCE_TEXTEDITORKEYMAPPER.H
C:\PROGRAM FILES\JUCE\MODULES\JUCE_GUI_BASICS\KEYBOARD\JUCE_TEXTINPUTTARGET.H
C:\PROGRAM FILES\JUCE\MODULES\JUCE_GUI_BASICS\COMMANDS\JUCE_APPLICATIONCOMMANDID.H
C:\PROGRAM FILES\JUCE\MODULES\JUCE_GUI_BASICS\COMMANDS\JUCE_APPLICATIONCOMMANDINFO.H
C:\PROGRAM FILES\JUCE\MODULES\JUCE_GUI_BASICS\COMMANDS\JUCE_APPLICATIONCOMMANDTARGET.H
C:\PROGRAM FILES\JUCE\MODULES\JUCE_GUI_BASICS\COMMANDS\JUCE_APPLICATIONCOMMANDMANAGER.H
C:\PROGRAM FILES\JUCE\MODULES\JUCE_GUI_BASICS\COMMANDS\JUCE_KEYPRESSMAPPINGSET.H
C:\PROGRAM FILES\JUCE\MODULES\JUCE_GUI_BASICS\BUTTONS\JUCE_BUTTON.H
C:\PROGRAM FILES\JUCE\MODULES\JUCE_GUI_BASICS\BUTTONS\JUCE_ARROWBUTTON.H
C:\PROGRAM FILES\JUCE\MODULES\JUCE_GUI_BASICS\BUTTONS\JUCE_DRAWABLEBUTTON.H
C:\PROGRAM FILES\JUCE\MODULES\JUCE_GUI_BASICS\BUTTONS\JUCE_HYPERLINKBUTTON.H
C:\PROGRAM FILES\JUCE\MODULES\JUCE_GUI_BASICS\BUTTONS\JUCE_IMAGEBUTTON.H
C:\PROGRAM FILES\JUCE\MODULES\JUCE_GUI_BASICS\BUTTONS\JUCE_SHAPEBUTTON.H
C:\PROGRAM FILES\JUCE\MODULES\JUCE_GUI_BASICS\BUTTONS\JUCE_TEXTBUTTON.H
C:\PROGRAM FILES\JUCE\MODULES\JUCE_GUI_BASICS\BUTTONS\JUCE_TOGGLEBUTTON.H
C:\PROGRAM FILES\JUCE\MODULES\JUCE_GUI_BASICS\LAYOUT\JUCE_ANIMATEDPOSITION.H
C:\PROGRAM FILES\JUCE\MODULES\JUCE_GUI_BASICS\LAYOUT\JUCE_ANIMATEDPOSITIONBEHAVIOURS.H
C:\PROGRAM FILES\JUCE\MODULES\JUCE_GUI_BASICS\LAYOUT\JUCE_COMPONENTBUILDER.H
C:\PROGRAM FILES\JUCE\MODULES\JUCE_GUI_BASICS\LAYOUT\JUCE_COMPONENTMOVEMENTWATCHER.H
C:\PROGRAM FILES\JUCE\MODULES\JUCE_GUI_BASICS\LAYOUT\JUCE_CONCERTINAPANEL.H
C:\PROGRAM FILES\JUCE\MODULES\JUCE_GUI_BASICS\LAYOUT\JUCE_GROUPCOMPONENT.H
C:\PROGRAM FILES\JUCE\MODULES\JUCE_GUI_BASICS\LAYOUT\JUCE_RESIZABLEBORDERCOMPONENT.H
C:\PROGRAM FILES\JUCE\MODULES\JUCE_GUI_BASICS\LAYOUT\JUCE_RESIZABLECORNERCOMPONENT.H
C:\PROGRAM FILES\JUCE\MODULES\JUCE_GUI_BASICS\LAYOUT\JUCE_RESIZABLEEDGECOMPONENT.H
C:\PROGRAM FILES\JUCE\MODULES\JUCE_GUI_BASICS\LAYOUT\JUCE_SCROLLBAR.H
C:\PROGRAM FILES\JUCE\MODULES\JUCE_GUI_BASICS\LAYOUT\JUCE_STRETCHABLELAYOUTMANAGER.H
C:\PROGRAM FILES\JUCE\MODULES\JUCE_GUI_BASICS\LAYOUT\JUCE_STRETCHABLELAYOUTRESIZERBAR.H
C:\PROGRAM FILES\JUCE\MODULES\JUCE_GUI_BASICS\LAYOUT\JUCE_STRETCHABLEOBJECTRESIZER.H
C:\PROGRAM FILES\JUCE\MODULES\JUCE_GUI_BASICS\LAYOUT\JUCE_TABBEDBUTTONBAR.H
C:\PROGRAM FILES\JUCE\MODULES\JUCE_GUI_BASICS\LAYOUT\JUCE_TABBEDCOMPONENT.H
C:\PROGRAM FILES\JUCE\MODULES\JUCE_GUI_BASICS\LAYOUT\JUCE_VIEWPORT.H
C:\PROGRAM FILES\JUCE\MODULES\JUCE_GUI_BASICS\MENUS\JUCE_POPUPMENU.H
C:\PROGRAM FILES\JUCE\MODULES\JUCE_GUI_BASICS\MENUS\JUCE_MENUBARMODEL.H
C:\PROGRAM FILES\JUCE\MODULES\JUCE_GUI_BASICS\MENUS\JUCE_MENUBARCOMPONENT.H
C:\PROGRAM FILES\JUCE\MODULES\JUCE_GUI_BASICS\POSITIONING\JUCE_RELATIVECOORDINATE.H
C:\PROGRAM FILES\JUCE\MODULES\JUCE_GUI_BASICS\POSITIONING\JUCE_MARKERLIST.H
C:\PROGRAM FILES\JUCE\MODULES\JUCE_GUI_BASICS\POSITIONING\JUCE_RELATIVEPOINT.H
C:\PROGRAM FILES\JUCE\MODULES\JUCE_GUI_BASICS\POSITIONING\JUCE_RELATIVERECTANGLE.H
C:\PROGRAM FILES\JUCE\MODULES\JUCE_GUI_BASICS\POSITIONING\JUCE_RELATIVECOORDINATEPOSITIONER.H
C:\PROGRAM FILES\JUCE\MODULES\JUCE_GUI_BASICS\POSITIONING\JUCE_RELATIVEPARALLELOGRAM.H
C:\PROGRAM FILES\JUCE\MODULES\JUCE_GUI_BASICS\POSITIONING\JUCE_RELATIVEPOINTPATH.H
C:\PROGRAM FILES\JUCE\MODULES\JUCE_GUI_BASICS\DRAWABLES\JUCE_DRAWABLE.H
C:\PROGRAM FILES\JUCE\MODULES\JUCE_GUI_BASICS\DRAWABLES\JUCE_DRAWABLESHAPE.H
C:\PROGRAM FILES\JUCE\MODULES\JUCE_GUI_BASICS\DRAWABLES\JUCE_DRAWABLECOMPOSITE.H
C:\PROGRAM FILES\JUCE\MODULES\JUCE_GUI_BASICS\DRAWABLES\JUCE_DRAWABLEIMAGE.H
C:\PROGRAM FILES\JUCE\MODULES\JUCE_GUI_BASICS\DRAWABLES\JUCE_DRAWABLEPATH.H
C:\PROGRAM FILES\JUCE\MODULES\JUCE_GUI_BASICS\DRAWABLES\JUCE_DRAWABLERECTANGLE.H
C:\PROGRAM FILES\JUCE\MODULES\JUCE_GUI_BASICS\DRAWABLES\JUCE_DRAWABLETEXT.H
C:\PROGRAM FILES\JUCE\MODULES\JUCE_GUI_BASICS\WIDGETS\JUCE_TEXTEDITOR.H
C:\PROGRAM FILES\JUCE\MODULES\JUCE_GUI_BASICS\WIDGETS\JUCE_LABEL.H
C:\PROGRAM FILES\JUCE\MODULES\JUCE_GUI_BASICS\WIDGETS\JUCE_COMBOBOX.H
C:\PROGRAM FILES\JUCE\MODULES\JUCE_GUI_BASICS\WIDGETS\JUCE_IMAGECOMPONENT.H
C:\PROGRAM FILES\JUCE\MODULES\JUCE_GUI_BASICS\WIDGETS\JUCE_LISTBOX.H
C:\PROGRAM FILES\JUCE\MODULES\JUCE_GUI_BASICS\WIDGETS\JUCE_PROGRESSBAR.H
C:\PROGRAM FILES\JUCE\MODULES\JUCE_GUI_BASICS\WIDGETS\JUCE_SLIDER.H
C:\PROGRAM FILES\JUCE\MODULES\JUCE_GUI_BASICS\WIDGETS\JUCE_TABLEHEADERCOMPONENT.H
C:\PROGRAM FILES\JUCE\MODULES\JUCE_GUI_BASICS\WIDGETS\JUCE_TABLELISTBOX.H
C:\PROGRAM FILES\JUCE\MODULES\JUCE_GUI_BASICS\WIDGETS\JUCE_TOOLBAR.H
C:\PROGRAM FILES\JUCE\MODULES\JUCE_GUI_BASICS\WIDGETS\JUCE_TOOLBARITEMCOMPONENT.H
C:\PROGRAM FILES\JUCE\MODULES\JUCE_GUI_BASICS\WIDGETS\JUCE_TOOLBARITEMFACTORY.H
C:\PROGRAM FILES\JUCE\MODULES\JUCE_GUI_BASICS\WIDGETS\JUCE_TOOLBARITEMPALETTE.H
C:\PROGRAM FILES\JUCE\MODULES\JUCE_GUI_BASICS\MENUS\JUCE_BURGERMENUCOMPONENT.H
C:\PROGRAM FILES\JUCE\MODULES\JUCE_GUI_BASICS\BUTTONS\JUCE_TOOLBARBUTTON.H
C:\PROGRAM FILES\JUCE\MODULES\JUCE_GUI_BASICS\MISC\JUCE_DROPSHADOWER.H
C:\PROGRAM FILES\JUCE\MODULES\JUCE_GUI_BASICS\MISC\JUCE_JUCESPLASHSCREEN.H
C:\PROGRAM FILES\JUCE\MODULES\JUCE_GUI_BASICS\WIDGETS\JUCE_TREEVIEW.H
C:\PROGRAM FILES\JUCE\MODULES\JUCE_GUI_BASICS\WINDOWS\JUCE_TOPLEVELWINDOW.H
C:\PROGRAM FILES\JUCE\MODULES\JUCE_GUI_BASICS\WINDOWS\JUCE_MESSAGEBOXOPTIONS.H
C:\PROGRAM FILES\JUCE\MODULES\JUCE_GUI_BASICS\WINDOWS\JUCE_ALERTWINDOW.H
C:\PROGRAM FILES\JUCE\MODULES\JUCE_GUI_BASICS\WINDOWS\JUCE_CALLOUTBOX.H
C:\PROGRAM FILES\JUCE\MODULES\JUCE_GUI_BASICS\WINDOWS\JUCE_COMPONENTPEER.H
C:\PROGRAM FILES\JUCE\MODULES\JUCE_GUI_BASICS\WINDOWS\JUCE_RESIZABLEWINDOW.H
C:\PROGRAM FILES\JUCE\MODULES\JUCE_GUI_BASICS\WINDOWS\JUCE_DOCUMENTWINDOW.H
C:\PROGRAM FILES\JUCE\MODULES\JUCE_GUI_BASICS\WINDOWS\JUCE_DIALOGWINDOW.H
C:\PROGRAM FILES\JUCE\MODULES\JUCE_GUI_BASICS\WINDOWS\JUCE_NATIVEMESSAGEBOX.H
C:\PROGRAM FILES\JUCE\MODULES\JUCE_GUI_BASICS\WINDOWS\JUCE_THREADWITHPROGRESSWINDOW.H
C:\PROGRAM FILES\JUCE\MODULES\JUCE_GUI_BASICS\WINDOWS\JUCE_TOOLTIPWINDOW.H
C:\PROGRAM FILES\JUCE\MODULES\JUCE_GUI_BASICS\LAYOUT\JUCE_MULTIDOCUMENTPANEL.H
C:\PROGRAM FILES\JUCE\MODULES\JUCE_GUI_BASICS\LAYOUT\JUCE_SIDEPANEL.H
C:\PROGRAM FILES\JUCE\MODULES\JUCE_GUI_BASICS\FILEBROWSER\JUCE_FILEBROWSERLISTENER.H
C:\PROGRAM FILES\JUCE\MODULES\JUCE_GUI_BASICS\FILEBROWSER\JUCE_DIRECTORYCONTENTSLIST.H
C:\PROGRAM FILES\JUCE\MODULES\JUCE_GUI_BASICS\FILEBROWSER\JUCE_DIRECTORYCONTENTSDISPLAYCOMPONENT.H
C:\PROGRAM FILES\JUCE\MODULES\JUCE_GUI_BASICS\FILEBROWSER\JUCE_FILEBROWSERCOMPONENT.H
C:\PROGRAM FILES\JUCE\MODULES\JUCE_GUI_BASICS\FILEBROWSER\JUCE_FILECHOOSER.H
C:\PROGRAM FILES\JUCE\MODULES\JUCE_GUI_BASICS\FILEBROWSER\JUCE_FILECHOOSERDIALOGBOX.H
C:\PROGRAM FILES\JUCE\MODULES\JUCE_GUI_BASICS\FILEBROWSER\JUCE_FILELISTCOMPONENT.H
C:\PROGRAM FILES\JUCE\MODULES\JUCE_GUI_BASICS\FILEBROWSER\JUCE_FILENAMECOMPONENT.H
C:\PROGRAM FILES\JUCE\MODULES\JUCE_GUI_BASICS\FILEBROWSER\JUCE_FILEPREVIEWCOMPONENT.H
C:\PROGRAM FILES\JUCE\MODULES\JUCE_GUI_BASICS\FILEBROWSER\JUCE_FILESEARCHPATHLISTCOMPONENT.H
C:\PROGRAM FILES\JUCE\MODULES\JUCE_GUI_BASICS\FILEBROWSER\JUCE_FILETREECOMPONENT.H
C:\PROGRAM FILES\JUCE\MODULES\JUCE_GUI_BASICS\FILEBROWSER\JUCE_IMAGEPREVIEWCOMPONENT.H
C:\PROGRAM FILES\JUCE\MODULES\JUCE_GUI_BASICS\FILEBROWSER\JUCE_CONTENTSHARER.H
C:\PROGRAM FILES\JUCE\MODULES\JUCE_GUI_BASICS\PROPERTIES\JUCE_PROPERTYCOMPONENT.H
C:\PROGRAM FILES\JUCE\MODULES\JUCE_GUI_BASICS\PROPERTIES\JUCE_BOOLEANPROPERTYCOMPONENT.H
C:\PROGRAM FILES\JUCE\MODULES\JUCE_GUI_BASICS\PROPERTIES\JUCE_BUTTONPROPERTYCOMPONENT.H
C:\PROGRAM FILES\JUCE\MODULES\JUCE_GUI_BASICS\PROPERTIES\JUCE_CHOICEPROPERTYCOMPONENT.H
C:\PROGRAM FILES\JUCE\MODULES\JUCE_GUI_BASICS\PROPERTIES\JUCE_PROPERTYPANEL.H
C:\PROGRAM FILES\JUCE\MODULES\JUCE_GUI_BASICS\PROPERTIES\JUCE_SLIDERPROPERTYCOMPONENT.H
C:\PROGRAM FILES\JUCE\MODULES\JUCE_GUI_BASICS\PROPERTIES\JUCE_TEXTPROPERTYCOMPONENT.H
C:\PROGRAM FILES\JUCE\MODULES\JUCE_GUI_BASICS\PROPERTIES\JUCE_MULTICHOICEPROPERTYCOMPONENT.H
C:\PROGRAM FILES\JUCE\MODULES\JUCE_GUI_BASICS\APPLICATION\JUCE_APPLICATION.H
C:\PROGRAM FILES\JUCE\MODULES\JUCE_GUI_BASICS\MISC\JUCE_BUBBLECOMPONENT.H
C:\PROGRAM FILES\JUCE\MODULES\JUCE_GUI_BASICS\LOOKANDFEEL\JUCE_LOOKANDFEEL.H
C:\PROGRAM FILES\JUCE\MODULES\JUCE_GUI_BASICS\LOOKANDFEEL\JUCE_LOOKANDFEEL_V2.H
C:\PROGRAM FILES\JUCE\MODULES\JUCE_GUI_BASICS\LOOKANDFEEL\JUCE_LOOKANDFEEL_V1.H
C:\PROGRAM FILES\JUCE\MODULES\JUCE_GUI_BASICS\LOOKANDFEEL\JUCE_LOOKANDFEEL_V3.H
C:\PROGRAM FILES\JUCE\MODULES\JUCE_GUI_BASICS\LOOKANDFEEL\JUCE_LOOKANDFEEL_V4.H
C:\PROGRAM FILES\JUCE\MODULES\JUCE_GUI_BASICS\MOUSE\JUCE_LASSOCOMPONENT.H
C:\PROGRAM FILES\JUCE\MODULES\JUCE_GUI_BASICS\ACCESSIBILITY\INTERFACES\JUCE_ACCESSIBILITYCELLINTERFACE.H
C:\PROGRAM FILES\JUCE\MODULES\JUCE_GUI_BASICS\ACCESSIBILITY\INTERFACES\JUCE_ACCESSIBILITYTABLEINTERFACE.H
C:\PROGRAM FILES\JUCE\MODULES\JUCE_GUI_BASICS\ACCESSIBILITY\INTERFACES\JUCE_ACCESSIBILITYTEXTINTERFACE.H
C:\PROGRAM FILES\JUCE\MODULES\JUCE_GUI_BASICS\ACCESSIBILITY\INTERFACES\JUCE_ACCESSIBILITYVALUEINTERFACE.H
C:\PROGRAM FILES\JUCE\MODULES\JUCE_GUI_BASICS\ACCESSIBILITY\ENUMS\JUCE_ACCESSIBILITYACTIONS.H
C:\PROGRAM FILES\JUCE\MODULES\JUCE_GUI_BASICS\ACCESSIBILITY\ENUMS\JUCE_ACCESSIBILITYEVENT.H
C:\PROGRAM FILES\JUCE\MODULES\JUCE_GUI_BASICS\ACCESSIBILITY\ENUMS\JUCE_ACCESSIBILITYROLE.H
C:\PROGRAM FILES\JUCE\MODULES\JUCE_GUI_BASICS\ACCESSIBILITY\JUCE_ACCESSIBILITYSTATE.H
C:\PROGRAM FILES\JUCE\MODULES\JUCE_GUI_BASICS\ACCESSIBILITY\JUCE_ACCESSIBILITYHANDLER.H
C:\PROGRAM FILES\JUCE\MODULES\JUCE_GUI_BASICS\LAYOUT\JUCE_FLEXITEM.H
C:\PROGRAM FILES\JUCE\MODULES\JUCE_GUI_BASICS\LAYOUT\JUCE_FLEXBOX.H
C:\PROGRAM FILES\JUCE\MODULES\JUCE_GUI_BASICS\LAYOUT\JUCE_GRIDITEM.H
C:\PROGRAM FILES\JUCE\MODULES\JUCE_GUI_BASICS\LAYOUT\JUCE_GRID.H
C:\PROGRAM FILES\JUCE\MODULES\JUCE_AUDIO_BASICS\JUCE_AUDIO_BASICS.H
C:\PROGRAM FILES\JUCE\MODULES\JUCE_AUDIO_BASICS\BUFFERS\JUCE_AUDIODATACONVERTERS.H
C:\PROGRAM FILES\JUCE\MODULES\JUCE_AUDIO_BASICS\BUFFERS\JUCE_FLOATVECTOROPERATIONS.H
C:\PROGRAM FILES\JUCE\MODULES\JUCE_AUDIO_BASICS\BUFFERS\JUCE_AUDIOSAMPLEBUFFER.H
C:\PROGRAM FILES\JUCE\MODULES\JUCE_AUDIO_BASICS\BUFFERS\JUCE_AUDIOCHANNELSET.H
C:\PROGRAM FILES\JUCE\MODULES\JUCE_AUDIO_BASICS\BUFFERS\JUCE_AUDIOPROCESSLOADMEASURER.H
C:\PROGRAM FILES\JUCE\MODULES\JUCE_AUDIO_BASICS\UTILITIES\JUCE_DECIBELS.H
C:\PROGRAM FILES\JUCE\MODULES\JUCE_AUDIO_BASICS\UTILITIES\JUCE_IIRFILTER.H
C:\PROGRAM FILES\JUCE\MODULES\JUCE_AUDIO_BASICS\UTILITIES\JUCE_GENERICINTERPOLATOR.H
C:\PROGRAM FILES\JUCE\MODULES\JUCE_AUDIO_BASICS\UTILITIES\JUCE_INTERPOLATORS.H
C:\PROGRAM FILES\JUCE\MODULES\JUCE_AUDIO_BASICS\UTILITIES\JUCE_SMOOTHEDVALUE.H
C:\PROGRAM FILES\JUCE\MODULES\JUCE_AUDIO_BASICS\UTILITIES\JUCE_REVERB.H
C:\PROGRAM FILES\JUCE\MODULES\JUCE_AUDIO_BASICS\UTILITIES\JUCE_ADSR.H
C:\PROGRAM FILES\JUCE\MODULES\JUCE_AUDIO_BASICS\MIDI\JUCE_MIDIMESSAGE.H
C:\PROGRAM FILES\JUCE\MODULES\JUCE_AUDIO_BASICS\MIDI\JUCE_MIDIBUFFER.H
C:\PROGRAM FILES\JUCE\MODULES\JUCE_AUDIO_BASICS\MIDI\JUCE_MIDIMESSAGESEQUENCE.H
C:\PROGRAM FILES\JUCE\MODULES\JUCE_AUDIO_BASICS\MIDI\JUCE_MIDIFILE.H
C:\PROGRAM FILES\JUCE\MODULES\JUCE_AUDIO_BASICS\MIDI\JUCE_MIDIKEYBOARDSTATE.H
C:\PROGRAM FILES\JUCE\MODULES\JUCE_AUDIO_BASICS\MIDI\JUCE_MIDIRPN.H
C:\PROGRAM FILES\JUCE\MODULES\JUCE_AUDIO_BASICS\MPE\JUCE_MPEVALUE.H
C:\PROGRAM FILES\JUCE\MODULES\JUCE_AUDIO_BASICS\MPE\JUCE_MPENOTE.H
C:\PROGRAM FILES\JUCE\MODULES\JUCE_AUDIO_BASICS\MPE\JUCE_MPEZONELAYOUT.H
C:\PROGRAM FILES\JUCE\MODULES\JUCE_AUDIO_BASICS\MPE\JUCE_MPEINSTRUMENT.H
C:\PROGRAM FILES\JUCE\MODULES\JUCE_AUDIO_BASICS\MPE\JUCE_MPEMESSAGES.H
C:\PROGRAM FILES\JUCE\MODULES\JUCE_AUDIO_BASICS\MPE\JUCE_MPESYNTHESISERBASE.H
C:\PROGRAM FILES\JUCE\MODULES\JUCE_AUDIO_BASICS\MPE\JUCE_MPESYNTHESISERVOICE.H
C:\PROGRAM FILES\JUCE\MODULES\JUCE_AUDIO_BASICS\MPE\JUCE_MPESYNTHESISER.H
C:\PROGRAM FILES\JUCE\MODULES\JUCE_AUDIO_BASICS\MPE\JUCE_MPEUTILS.H
C:\PROGRAM FILES\JUCE\MODULES\JUCE_AUDIO_BASICS\SOURCES\JUCE_AUDIOSOURCE.H
C:\PROGRAM FILES\JUCE\MODULES\JUCE_AUDIO_BASICS\SOURCES\JUCE_POSITIONABLEAUDIOSOURCE.H
C:\PROGRAM FILES\JUCE\MODULES\JUCE_AUDIO_BASICS\SOURCES\JUCE_BUFFERINGAUDIOSOURCE.H
C:\PROGRAM FILES\JUCE\MODULES\JUCE_AUDIO_BASICS\SOURCES\JUCE_CHANNELREMAPPINGAUDIOSOURCE.H
C:\PROGRAM FILES\JUCE\MODULES\JUCE_AUDIO_BASICS\SOURCES\JUCE_IIRFILTERAUDIOSOURCE.H
C:\PROGRAM FILES\JUCE\MODULES\JUCE_AUDIO_BASICS\SOURCES\JUCE_MEMORYAUDIOSOURCE.H
C:\PROGRAM FILES\JUCE\MODULES\JUCE_AUDIO_BASICS\SOURCES\JUCE_MIXERAUDIOSOURCE.H
C:\PROGRAM FILES\JUCE\MODULES\JUCE_AUDIO_BASICS\SOURCES\JUCE_RESAMPLINGAUDIOSOURCE.H
C:\PROGRAM FILES\JUCE\MODULES\JUCE_AUDIO_BASICS\SOURCES\JUCE_REVERBAUDIOSOURCE.H
C:\PROGRAM FILES\JUCE\MODULES\JUCE_AUDIO_BASICS\SOURCES\JUCE_TONEGENERATORAUDIOSOURCE.H
C:\PROGRAM FILES\JUCE\MODULES\JUCE_AUDIO_BASICS\SYNTHESISERS\JUCE_SYNTHESISER.H
C:\PROGRAM FILES\JUCE\MODULES\JUCE_AUDIO_BASICS\AUDIO_PLAY_HEAD\JUCE_AUDIOPLAYHEAD.H
C:\PROGRAM FILES\JUCE\MODULES\JUCE_AUDIO_PROCESSORS\JUCE_AUDIO_PROCESSORS.H
C:\PROGRAM FILES\JUCE\MODULES\JUCE_AUDIO_PROCESSORS\UTILITIES\JUCE_VSTCALLBACKHANDLER.H
C:\PROGRAM FILES\JUCE\MODULES\JUCE_AUDIO_PROCESSORS\UTILITIES\JUCE_VST3CLIENTEXTENSIONS.H
C:\PROGRAM FILES\JUCE\MODULES\JUCE_AUDIO_PROCESSORS\UTILITIES\JUCE_EXTENSIONSVISITOR.H
C:\PROGRAM FILES\JUCE\MODULES\JUCE_AUDIO_PROCESSORS\PROCESSORS\JUCE_AUDIOPROCESSORPARAMETER.H
C:\PROGRAM FILES\JUCE\MODULES\JUCE_AUDIO_PROCESSORS\PROCESSORS\JUCE_AUDIOPROCESSOREDITORHOSTCONTEXT.H
C:\PROGRAM FILES\JUCE\MODULES\JUCE_AUDIO_PROCESSORS\PROCESSORS\JUCE_AUDIOPROCESSOREDITOR.H
C:\PROGRAM FILES\JUCE\MODULES\JUCE_AUDIO_PROCESSORS\PROCESSORS\JUCE_AUDIOPROCESSORLISTENER.H
C:\PROGRAM FILES\JUCE\MODULES\JUCE_AUDIO_PROCESSORS\PROCESSORS\JUCE_AUDIOPROCESSORPARAMETERGROUP.H
C:\PROGRAM FILES\JUCE\MODULES\JUCE_AUDIO_PROCESSORS\PROCESSORS\JUCE_AUDIOPROCESSOR.H
C:\PROGRAM FILES\JUCE\MODULES\JUCE_AUDIO_PROCESSORS\PROCESSORS\JUCE_PLUGINDESCRIPTION.H
C:\PROGRAM FILES\JUCE\MODULES\JUCE_AUDIO_PROCESSORS\PROCESSORS\JUCE_AUDIOPLUGININSTANCE.H
C:\PROGRAM FILES\JUCE\MODULES\JUCE_AUDIO_PROCESSORS\PROCESSORS\JUCE_AUDIOPROCESSORGRAPH.H
C:\PROGRAM FILES\JUCE\MODULES\JUCE_AUDIO_PROCESSORS\PROCESSORS\JUCE_GENERICAUDIOPROCESSOREDITOR.H
C:\PROGRAM FILES\JUCE\MODULES\JUCE_AUDIO_PROCESSORS\FORMAT\JUCE_AUDIOPLUGINFORMAT.H
C:\PROGRAM FILES\JUCE\MODULES\JUCE_AUDIO_PROCESSORS\FORMAT\JUCE_AUDIOPLUGINFORMATMANAGER.H
C:\PROGRAM FILES\JUCE\MODULES\JUCE_AUDIO_PROCESSORS\SCANNING\JUCE_KNOWNPLUGINLIST.H
C:\PROGRAM FILES\JUCE\MODULES\JUCE_AUDIO_PROCESSORS\FORMAT_TYPES\JUCE_AUDIOUNITPLUGINFORMAT.H
C:\PROGRAM FILES\JUCE\MODULES\JUCE_AUDIO_PROCESSORS\FORMAT_TYPES\JUCE_LADSPAPLUGINFORMAT.H
C:\PROGRAM FILES\JUCE\MODULES\JUCE_AUDIO_PROCESSORS\FORMAT_TYPES\JUCE_VSTMIDIEVENTLIST.H
C:\PROGRAM FILES\JUCE\MODULES\JUCE_AUDIO_PROCESSORS\FORMAT_TYPES\JUCE_VSTPLUGINFORMAT.H
C:\PROGRAM FILES\JUCE\MODULES\JUCE_AUDIO_PROCESSORS\FORMAT_TYPES\JUCE_VST3PLUGINFORMAT.H
C:\PROGRAM FILES\JUCE\MODULES\JUCE_AUDIO_PROCESSORS\SCANNING\JUCE_PLUGINDIRECTORYSCANNER.H
C:\PROGRAM FILES\JUCE\MODULES\JUCE_AUDIO_PROCESSORS\SCANNING\JUCE_PLUGINLISTCOMPONENT.H
C:\PROGRAM FILES\JUCE\MODULES\JUCE_AUDIO_PROCESSORS\UTILITIES\JUCE_AUDIOPROCESSORPARAMETERWITHID.H
C:\PROGRAM FILES\JUCE\MODULES\JUCE_AUDIO_PROCESSORS\UTILITIES\JUCE_RANGEDAUDIOPARAMETER.H
C:\PROGRAM FILES\JUCE\MODULES\JUCE_AUDIO_PROCESSORS\UTILITIES\JUCE_AUDIOPARAMETERFLOAT.H
C:\PROGRAM FILES\JUCE\MODULES\JUCE_AUDIO_PROCESSORS\UTILITIES\JUCE_AUDIOPARAMETERINT.H
C:\PROGRAM FILES\JUCE\MODULES\JUCE_AUDIO_PROCESSORS\UTILITIES\JUCE_AUDIOPARAMETERBOOL.H
C:\PROGRAM FILES\JUCE\MODULES\JUCE_AUDIO_PROCESSORS\UTILITIES\JUCE_AUDIOPARAMETERCHOICE.H
C:\PROGRAM FILES\JUCE\MODULES\JUCE_AUDIO_PROCESSORS\UTILITIES\JUCE_PARAMETERATTACHMENTS.H
C:\PROGRAM FILES\JUCE\MODULES\JUCE_AUDIO_PROCESSORS\UTILITIES\JUCE_AUDIOPROCESSORVALUETREESTATE.H
C:\PROGRAM FILES\JUCE\MODULES\JUCE_AUDIO_PROCESSORS\UTILITIES\JUCE_PLUGINHOSTTYPE.H
C:\PROGRAM FILES\JUCE\MODULES\JUCE_AUDIO_PLUGIN_CLIENT\UTILITY\JUCE_CREATEPLUGINFILTER.H
C:\PROGRAM FILES\JUCE\MODULES\JUCE_AUDIO_PLUGIN_CLIENT\UTILITY\JUCE_WINDOWSHOOKS.H
C:\PROGRAM FILES\JUCE\MODULES\JUCE_AUDIO_PLUGIN_CLIENT\UTILITY\JUCE_FAKEMOUSEMOVEGENERATOR.H
C:\PROGRAM FILES\JUCE\MODULES\JUCE_AUDIO_PLUGIN_CLIENT\UTILITY\JUCE_LINUXMESSAGETHREAD.H
C:\PROGRAM FILES\JUCE\MODULES\JUCE_AUDIO_PROCESSORS\FORMAT_TYPES\JUCE_LEGACYAUDIOPARAMETER.CPP
C:\PROGRAM FILES\JUCE\MODULES\JUCE_AUDIO_PROCESSORS\FORMAT_TYPES\JUCE_VST3COMMON.H
