^C:\USERS\ZEBRA\ONEDRIVE\DOCUMENTS\COMPUTER SCIENCE YEAR 3\SEMESTER 1\INDIVIDUAL PROJECT\GIT_REPO\COMP3931-AUDIO-FX-PLUGIN\CRUNCH_BOX_V1\CRUNCH_BOX_1\BUILDS\VISUALSTUDIO2019\X64\DEBUG\VST3\INCLUDE_JUCE_AUDIO_PLUGIN_CLIENT_VST3.OBJ|C:\USERS\ZEBRA\ONEDRIVE\DOCUMENTS\COMPUTER SCIENCE YEAR 3\SEMESTER 1\INDIVIDUAL PROJECT\GIT_REPO\COMP3931-AUDIO-FX-PLUGIN\CRUNCH_BOX_V1\CRUNCH_BOX_1\BUILDS\VISUALSTUDIO2019\X64\DEBUG\VST3\RESOURCES.RES
C:\USERS\ZEBRA\ONEDRIVE\DOCUMENTS\COMPUTER SCIENCE YEAR 3\SEMESTER 1\INDIVIDUAL PROJECT\GIT_REPO\COMP3931-AUDIO-FX-PLUGIN\CRUNCH_BOX_V1\CRUNCH_BOX_1\BUILDS\VISUALSTUDIO2019\X64\DEBUG\SHARED CODE\CRUNCH_BOX_1.LIB
C:\PROGRAM FILES (X86)\WINDOWS KITS\10\LIB\10.0.19041.0\UM\X64\KERNEL32.LIB
C:\PROGRAM FILES (X86)\WINDOWS KITS\10\LIB\10.0.19041.0\UM\X64\USER32.LIB
C:\PROGRAM FILES (X86)\WINDOWS KITS\10\LIB\10.0.19041.0\UM\X64\GDI32.LIB
C:\PROGRAM FILES (X86)\WINDOWS KITS\10\LIB\10.0.19041.0\UM\X64\WINSPOOL.LIB
C:\PROGRAM FILES (X86)\WINDOWS KITS\10\LIB\10.0.19041.0\UM\X64\COMDLG32.LIB
C:\PROGRAM FILES (X86)\WINDOWS KITS\10\LIB\10.0.19041.0\UM\X64\ADVAPI32.LIB
C:\PROGRAM FILES (X86)\WINDOWS KITS\10\LIB\10.0.19041.0\UM\X64\SHELL32.LIB
C:\PROGRAM FILES (X86)\WINDOWS KITS\10\LIB\10.0.19041.0\UM\X64\OLE32.LIB
C:\PROGRAM FILES (X86)\WINDOWS KITS\10\LIB\10.0.19041.0\UM\X64\OLEAUT32.LIB
C:\PROGRAM FILES (X86)\WINDOWS KITS\10\LIB\10.0.19041.0\UM\X64\UUID.LIB
C:\PROGRAM FILES (X86)\WINDOWS KITS\10\LIB\10.0.19041.0\UM\X64\ODBC32.LIB
C:\PROGRAM FILES (X86)\WINDOWS KITS\10\LIB\10.0.19041.0\UM\X64\ODBCCP32.LIB
C:\USERS\ZEBRA\ONEDRIVE\DOCUMENTS\COMPUTER SCIENCE YEAR 3\SEMESTER 1\INDIVIDUAL PROJECT\GIT_REPO\COMP3931-AUDIO-FX-PLUGIN\CRUNCH_BOX_V1\CRUNCH_BOX_1\BUILDS\VISUALSTUDIO2019\X64\DEBUG\VST3\RESOURCES.RES
C:\USERS\ZEBRA\ONEDRIVE\DOCUMENTS\COMPUTER SCIENCE YEAR 3\SEMESTER 1\INDIVIDUAL PROJECT\GIT_REPO\COMP3931-AUDIO-FX-PLUGIN\CRUNCH_BOX_V1\CRUNCH_BOX_1\BUILDS\VISUALSTUDIO2019\X64\DEBUG\VST3\INCLUDE_JUCE_AUDIO_PLUGIN_CLIENT_VST3.OBJ
C:\WINDOWS\SYSTEM32\TZRES.DLL
C:\WINDOWS\GLOBALIZATION\SORTING\SORTDEFAULT.NLS
C:\PROGRAM FILES\MICROSOFT VISUAL STUDIO\2022\COMMUNITY\VC\TOOLS\MSVC\14.30.30705\LIB\X64\MSVCPRTD.LIB
C:\PROGRAM FILES\MICROSOFT VISUAL STUDIO\2022\COMMUNITY\VC\TOOLS\MSVC\14.30.30705\LIB\X64\MSVCRTD.LIB
C:\PROGRAM FILES\MICROSOFT VISUAL STUDIO\2022\COMMUNITY\VC\TOOLS\MSVC\14.30.30705\LIB\X64\OLDNAMES.LIB
C:\PROGRAM FILES (X86)\WINDOWS KITS\10\LIB\10.0.19041.0\UM\X64\WININET.LIB
C:\PROGRAM FILES (X86)\WINDOWS KITS\10\LIB\10.0.19041.0\UM\X64\WS2_32.LIB
C:\PROGRAM FILES (X86)\WINDOWS KITS\10\LIB\10.0.19041.0\UM\X64\VERSION.LIB
C:\PROGRAM FILES (X86)\WINDOWS KITS\10\LIB\10.0.19041.0\UM\X64\SHLWAPI.LIB
C:\PROGRAM FILES (X86)\WINDOWS KITS\10\LIB\10.0.19041.0\UM\X64\WINMM.LIB
C:\PROGRAM FILES\MICROSOFT VISUAL STUDIO\2022\COMMUNITY\VC\TOOLS\MSVC\14.30.30705\LIB\X64\COMSUPPWD.LIB
C:\PROGRAM FILES (X86)\WINDOWS KITS\10\LIB\10.0.19041.0\UM\X64\DBGHELP.LIB
C:\PROGRAM FILES (X86)\WINDOWS KITS\10\LIB\10.0.19041.0\UM\X64\SAPI.LIB
C:\PROGRAM FILES (X86)\WINDOWS KITS\10\LIB\10.0.19041.0\UM\X64\VFW32.LIB
C:\PROGRAM FILES (X86)\WINDOWS KITS\10\LIB\10.0.19041.0\UM\X64\IMM32.LIB
C:\PROGRAM FILES (X86)\WINDOWS KITS\10\LIB\10.0.19041.0\UM\X64\COMCTL32.LIB
C:\PROGRAM FILES\MICROSOFT VISUAL STUDIO\2022\COMMUNITY\VC\TOOLS\MSVC\14.30.30705\LIB\X64\VCRUNTIMED.LIB
C:\PROGRAM FILES (X86)\WINDOWS KITS\10\LIB\10.0.19041.0\UCRT\X64\UCRTD.LIB
C:\USERS\ZEBRA\ONEDRIVE\DOCUMENTS\COMPUTER SCIENCE YEAR 3\SEMESTER 1\INDIVIDUAL PROJECT\GIT_REPO\COMP3931-AUDIO-FX-PLUGIN\CRUNCH_BOX_V1\CRUNCH_BOX_1\BUILDS\VISUALSTUDIO2019\X64\DEBUG\SHARED CODE\CRUNCH_BOX_1.PDB
